<?xml version="1.0" encoding="utf-8"?>
<!-- Generator: Adobe Illustrator 23.0.0, SVG Export Plug-In . SVG Version: 6.00 Build 0)  -->
<svg version="1.1" id="Layer_1" xmlns="http://www.w3.org/2000/svg" xmlns:xlink="http://www.w3.org/1999/xlink" x="0px" y="0px"
	 width="300px" height="131px" viewBox="0 0 300 131" style="enable-background:new 0 0 300 131;" xml:space="preserve">
<style type="text/css">
	.st0{fill:#FFFFFF;}
</style>
<g>
	<path class="st0" d="M37,44.3v3.9h-7.6v21.4h-4.7V48.2H17v-3.9H37z"/>
	<path class="st0" d="M61.3,69.6h-4.7V58.6H44.7v11.1H40V44.3h4.7v10.9h11.9V44.3h4.7V69.6z"/>
	<path class="st0" d="M71.8,69.6H67V44.3h4.7V69.6z"/>
	<path class="st0" d="M91,48.9c-0.1,0.3-0.3,0.4-0.4,0.5s-0.4,0.2-0.6,0.2s-0.5-0.1-0.8-0.3c-0.3-0.2-0.6-0.4-1-0.6
		s-0.9-0.4-1.4-0.6c-0.5-0.2-1.2-0.3-1.9-0.3c-0.7,0-1.2,0.1-1.7,0.2c-0.5,0.2-0.9,0.4-1.2,0.7c-0.3,0.3-0.6,0.6-0.7,1
		c-0.2,0.4-0.2,0.8-0.2,1.3c0,0.6,0.2,1.1,0.5,1.5c0.3,0.4,0.8,0.7,1.3,1c0.5,0.3,1.2,0.5,1.9,0.8c0.7,0.2,1.4,0.5,2.1,0.7
		c0.7,0.3,1.4,0.5,2.1,0.9c0.7,0.3,1.3,0.8,1.9,1.3c0.5,0.5,1,1.1,1.3,1.9c0.3,0.7,0.5,1.6,0.5,2.7c0,1.1-0.2,2.2-0.6,3.2
		c-0.4,1-1,1.9-1.7,2.6c-0.8,0.7-1.7,1.3-2.8,1.8c-1.1,0.4-2.3,0.6-3.7,0.6c-0.8,0-1.6-0.1-2.4-0.2c-0.8-0.2-1.5-0.4-2.2-0.7
		c-0.7-0.3-1.4-0.6-2-1.1c-0.6-0.4-1.2-0.9-1.7-1.4l1.4-2.3c0.1-0.2,0.3-0.3,0.5-0.4c0.2-0.1,0.4-0.2,0.6-0.2c0.3,0,0.6,0.1,0.9,0.4
		c0.3,0.2,0.7,0.5,1.2,0.8c0.5,0.3,1,0.6,1.6,0.8s1.4,0.4,2.2,0.4c1.3,0,2.4-0.3,3.1-1c0.7-0.6,1.1-1.5,1.1-2.7
		c0-0.7-0.2-1.2-0.5-1.6c-0.3-0.4-0.8-0.8-1.3-1.1c-0.5-0.3-1.2-0.5-1.9-0.7s-1.4-0.4-2.1-0.6c-0.7-0.2-1.4-0.5-2.1-0.8
		c-0.7-0.3-1.3-0.8-1.9-1.3s-1-1.2-1.3-2c-0.3-0.8-0.5-1.8-0.5-2.9c0-0.9,0.2-1.8,0.6-2.7s0.9-1.7,1.6-2.3c0.7-0.7,1.6-1.2,2.6-1.6
		c1-0.4,2.2-0.6,3.5-0.6c1.5,0,2.9,0.2,4.1,0.7c1.3,0.5,2.3,1.1,3.2,2L91,48.9z"/>
	<path class="st0" d="M108.3,69.6h-4.7V44.3h4.7V69.6z"/>
	<path class="st0" d="M127.5,48.9c-0.1,0.3-0.3,0.4-0.4,0.5s-0.4,0.2-0.6,0.2s-0.5-0.1-0.8-0.3c-0.3-0.2-0.6-0.4-1-0.6
		s-0.9-0.4-1.4-0.6c-0.5-0.2-1.2-0.3-1.9-0.3c-0.7,0-1.2,0.1-1.7,0.2c-0.5,0.2-0.9,0.4-1.2,0.7c-0.3,0.3-0.6,0.6-0.7,1
		c-0.2,0.4-0.2,0.8-0.2,1.3c0,0.6,0.2,1.1,0.5,1.5c0.3,0.4,0.8,0.7,1.3,1c0.5,0.3,1.2,0.5,1.9,0.8c0.7,0.2,1.4,0.5,2.1,0.7
		c0.7,0.3,1.4,0.5,2.1,0.9c0.7,0.3,1.3,0.8,1.9,1.3c0.5,0.5,1,1.1,1.3,1.9c0.3,0.7,0.5,1.6,0.5,2.7c0,1.1-0.2,2.2-0.6,3.2
		c-0.4,1-1,1.9-1.7,2.6c-0.8,0.7-1.7,1.3-2.8,1.8c-1.1,0.4-2.3,0.6-3.7,0.6c-0.8,0-1.6-0.1-2.4-0.2c-0.8-0.2-1.5-0.4-2.2-0.7
		c-0.7-0.3-1.4-0.6-2-1.1c-0.6-0.4-1.2-0.9-1.7-1.4l1.4-2.3c0.1-0.2,0.3-0.3,0.5-0.4c0.2-0.1,0.4-0.2,0.6-0.2c0.3,0,0.6,0.1,0.9,0.4
		c0.3,0.2,0.7,0.5,1.2,0.8c0.5,0.3,1,0.6,1.6,0.8s1.4,0.4,2.2,0.4c1.3,0,2.4-0.3,3.1-1c0.7-0.6,1.1-1.5,1.1-2.7
		c0-0.7-0.2-1.2-0.5-1.6c-0.3-0.4-0.8-0.8-1.3-1.1c-0.5-0.3-1.2-0.5-1.9-0.7s-1.4-0.4-2.1-0.6c-0.7-0.2-1.4-0.5-2.1-0.8
		c-0.7-0.3-1.3-0.8-1.9-1.3s-1-1.2-1.3-2c-0.3-0.8-0.5-1.8-0.5-2.9c0-0.9,0.2-1.8,0.6-2.7s0.9-1.7,1.6-2.3c0.7-0.7,1.6-1.2,2.6-1.6
		c1-0.4,2.2-0.6,3.5-0.6c1.5,0,2.9,0.2,4.1,0.7c1.3,0.5,2.3,1.1,3.2,2L127.5,48.9z"/>
	<path class="st0" d="M135.7,44.4c0.1,0,0.3,0.1,0.4,0.1c0.1,0.1,0.2,0.1,0.3,0.2c0.1,0.1,0.2,0.2,0.4,0.4L150.1,62
		c0-0.4-0.1-0.8-0.1-1.2c0-0.4,0-0.8,0-1.1V44.3h4.1v25.3h-2.4c-0.4,0-0.7-0.1-0.9-0.2s-0.5-0.3-0.7-0.6L136.8,52
		c0,0.4,0.1,0.7,0.1,1.1c0,0.4,0,0.7,0,1v15.5h-4.1V44.3h2.5C135.4,44.3,135.6,44.3,135.7,44.4z"/>
	<path class="st0" d="M162.1,42.8c0.4,0.7,0.7,1.3,0.9,2c0.2,0.7,0.3,1.3,0.3,2c0,1.2-0.3,2.3-0.9,3.3c-0.6,1.1-1.4,2-2.5,2.9
		l-1.3-0.8c-0.1-0.1-0.2-0.2-0.2-0.3c0-0.1-0.1-0.2-0.1-0.3c0-0.2,0.1-0.4,0.2-0.6c0.2-0.2,0.3-0.4,0.5-0.6s0.3-0.5,0.5-0.8
		c0.1-0.3,0.3-0.6,0.3-0.9c0.1-0.3,0.1-0.7,0.1-1c0-0.4-0.1-0.8-0.2-1.3c-0.1-0.4-0.3-0.9-0.6-1.4c-0.1-0.2-0.2-0.3-0.2-0.5
		c0-0.4,0.2-0.6,0.6-0.8L162.1,42.8z"/>
	<path class="st0" d="M184.9,44.3v3.9h-7.6v21.4h-4.7V48.2h-7.6v-3.9H184.9z"/>
	<path class="st0" d="M37,81.3v3.9h-7.6v21.4h-4.7V85.2H17v-3.9H37z"/>
	<path class="st0" d="M61.3,106.6h-4.7V95.6H44.7v11.1H40V81.3h4.7v10.9h11.9V81.3h4.7V106.6z"/>
	<path class="st0" d="M82.4,81.3v3.7H71.2v7H80v3.6h-8.8v7.2h11.2v3.8h-16V81.3H82.4z"/>
	<path class="st0" d="M109.2,81.3v3.7H98v7.5h9.5v3.8H98v10.3h-4.7V81.3H109.2z"/>
	<path class="st0" d="M123.1,102.8c0.9,0,1.7-0.2,2.4-0.5c0.7-0.3,1.3-0.7,1.8-1.3c0.5-0.5,0.9-1.2,1.1-2c0.3-0.8,0.4-1.7,0.4-2.6
		V81.3h4.7v15.2c0,1.5-0.2,2.9-0.7,4.2s-1.2,2.4-2.1,3.3c-0.9,0.9-2,1.7-3.3,2.2c-1.3,0.5-2.8,0.8-4.4,0.8c-1.6,0-3.1-0.3-4.4-0.8
		c-1.3-0.5-2.4-1.2-3.3-2.2s-1.6-2-2.1-3.3s-0.7-2.7-0.7-4.2V81.3h4.7v15.1c0,1,0.1,1.8,0.4,2.6c0.3,0.8,0.6,1.5,1.1,2
		c0.5,0.6,1.1,1,1.8,1.3C121.4,102.7,122.2,102.8,123.1,102.8z"/>
	<path class="st0" d="M156.2,81.3v3.9h-7.6v21.4h-4.7V85.2h-7.6v-3.9H156.2z"/>
	<path class="st0" d="M169.4,102.8c0.9,0,1.7-0.2,2.4-0.5c0.7-0.3,1.3-0.7,1.8-1.3c0.5-0.5,0.9-1.2,1.1-2c0.3-0.8,0.4-1.7,0.4-2.6
		V81.3h4.7v15.2c0,1.5-0.2,2.9-0.7,4.2s-1.2,2.4-2.1,3.3c-0.9,0.9-2,1.7-3.3,2.2c-1.3,0.5-2.8,0.8-4.4,0.8c-1.6,0-3.1-0.3-4.4-0.8
		c-1.3-0.5-2.4-1.2-3.3-2.2s-1.6-2-2.1-3.3s-0.7-2.7-0.7-4.2V81.3h4.7v15.1c0,1,0.1,1.8,0.4,2.6c0.3,0.8,0.6,1.5,1.1,2
		c0.5,0.6,1.1,1,1.8,1.3C167.7,102.7,168.5,102.8,169.4,102.8z"/>
	<path class="st0" d="M189.5,96.7v9.9h-4.7V81.3h7.7c1.7,0,3.2,0.2,4.4,0.5c1.2,0.4,2.2,0.9,3,1.5c0.8,0.6,1.4,1.4,1.7,2.3
		c0.4,0.9,0.6,1.9,0.6,2.9c0,0.9-0.1,1.7-0.4,2.4c-0.3,0.8-0.6,1.4-1.1,2.1c-0.5,0.6-1.1,1.2-1.8,1.6c-0.7,0.5-1.5,0.8-2.4,1.1
		c0.6,0.3,1.1,0.8,1.5,1.5l6.3,9.3h-4.2c-0.4,0-0.8-0.1-1-0.2c-0.3-0.2-0.5-0.4-0.7-0.7l-5.3-8.1c-0.2-0.3-0.4-0.5-0.7-0.6
		c-0.2-0.1-0.6-0.2-1.1-0.2H189.5z M189.5,93.4h2.9c0.9,0,1.7-0.1,2.3-0.3s1.2-0.5,1.6-0.9c0.4-0.4,0.7-0.9,1-1.4
		c0.2-0.5,0.3-1.1,0.3-1.8c0-1.3-0.4-2.3-1.3-3c-0.8-0.7-2.1-1-3.9-1h-3V93.4z"/>
	<path class="st0" d="M223.6,81.3v3.7h-11.2v7h8.8v3.6h-8.8v7.2h11.2v3.8h-16V81.3H223.6z"/>
	<path class="st0" d="M226.4,104.3c0-0.4,0.1-0.7,0.2-1c0.1-0.3,0.3-0.6,0.6-0.8c0.2-0.2,0.5-0.4,0.8-0.6c0.3-0.1,0.7-0.2,1-0.2
		c0.4,0,0.7,0.1,1,0.2c0.3,0.1,0.6,0.3,0.8,0.6c0.2,0.2,0.4,0.5,0.6,0.8c0.1,0.3,0.2,0.7,0.2,1c0,0.4-0.1,0.7-0.2,1
		c-0.1,0.3-0.3,0.6-0.6,0.8s-0.5,0.4-0.8,0.6c-0.3,0.1-0.7,0.2-1,0.2c-0.4,0-0.7-0.1-1-0.2c-0.3-0.1-0.6-0.3-0.8-0.6
		c-0.2-0.2-0.4-0.5-0.6-0.8C226.4,105,226.4,104.6,226.4,104.3z"/>
</g>
</svg>
