<?xml version="1.0" encoding="utf-8"?>
<!-- Generator: Adobe Illustrator 23.0.0, SVG Export Plug-In . SVG Version: 6.00 Build 0)  -->
<svg version="1.1" id="Layer_1" xmlns="http://www.w3.org/2000/svg" xmlns:xlink="http://www.w3.org/1999/xlink" x="0px" y="0px"
	 width="150px" height="50px" viewBox="0 0 150 50" style="enable-background:new 0 0 150 50;" xml:space="preserve">
<style type="text/css">
	.st0{fill:#FFFFFF;}
</style>
<g>
	<path class="st0" d="M5.7,21.1H4V8.7h1.7V21.1z"/>
	<path class="st0" d="M10.3,13.4c0.3-0.5,0.7-0.9,1.2-1.2c0.5-0.3,1.1-0.4,1.9-0.4c1,0,1.8,0.3,2.4,0.9c0.5,0.6,0.8,1.5,0.8,2.6v5.8
		h-1.6v-5.6c0-0.8-0.2-1.3-0.5-1.7c-0.3-0.4-0.8-0.5-1.5-0.5c-0.8,0-1.4,0.3-1.9,0.8c-0.5,0.5-0.7,1.3-0.7,2.2v4.8H8.7v-9h0.8
		c0.5,0,0.7,0.2,0.7,0.6V13.4z"/>
	<path class="st0" d="M23.4,21.1c-0.2,0-0.3,0-0.5,0.1c-0.2,0-0.3,0-0.5,0c-1,0-1.7-0.2-2.2-0.7c-0.4-0.5-0.7-1.3-0.7-2.4v-4.7H18
		v-1.3h1.5V9.8h1.6v2.3h2.2v1.3h-2.2v4.9c0,0.6,0.1,1,0.4,1.3c0.3,0.2,0.7,0.3,1.4,0.3h0.5V21.1z"/>
	<path class="st0" d="M26.4,17c0.1,1,0.4,1.7,0.9,2.2c0.5,0.5,1.3,0.8,2.2,0.8c0.9,0,1.7-0.2,2.3-0.7l0.7,1.1
		c-0.4,0.4-0.9,0.6-1.4,0.8c-0.5,0.2-1.1,0.3-1.7,0.3c-0.7,0-1.3-0.1-1.9-0.3s-1-0.5-1.4-0.9c-0.4-0.4-0.7-0.9-0.9-1.5
		c-0.2-0.6-0.3-1.3-0.3-2.1c0-0.7,0.1-1.4,0.3-2c0.2-0.6,0.5-1.1,0.9-1.5s0.8-0.7,1.4-0.9c0.5-0.2,1.1-0.3,1.7-0.3s1.1,0.1,1.6,0.3
		c0.5,0.2,0.8,0.5,1.2,0.8c0.3,0.4,0.5,0.8,0.7,1.3c0.2,0.5,0.2,1,0.2,1.6c0,0.4,0,0.7-0.1,1.1H26.4z M29.1,13.2
		c-0.7,0-1.4,0.2-1.8,0.7c-0.5,0.5-0.8,1.1-0.9,1.9h4.9v-0.1c0-0.8-0.2-1.4-0.6-1.8S29.8,13.2,29.1,13.2z"/>
	<path class="st0" d="M36.6,8.2v10.5c0,0.5,0.1,0.8,0.2,1s0.5,0.2,0.9,0.2h0.1v1.3c-0.1,0-0.2,0-0.3,0.1c-0.1,0-0.2,0-0.4,0
		c-0.7,0-1.3-0.2-1.6-0.6c-0.4-0.4-0.5-1-0.5-1.8V8.2H36.6z"/>
	<path class="st0" d="M57,20.1c-0.4,0.4-1,0.7-1.6,0.9c-0.6,0.2-1.4,0.3-2.2,0.3c-1,0-1.9-0.2-2.6-0.5c-0.7-0.3-1.3-0.8-1.8-1.4
		c-0.5-0.6-0.8-1.3-1.1-2.1c-0.2-0.8-0.4-1.6-0.4-2.5c0-1,0.1-1.9,0.4-2.7c0.3-0.8,0.7-1.5,1.2-2c0.5-0.6,1.1-1,1.9-1.3
		c0.7-0.3,1.5-0.4,2.4-0.4c0.8,0,1.4,0.1,2,0.3c0.6,0.2,1.1,0.5,1.5,0.8l-0.8,1.3c-0.4-0.3-0.8-0.5-1.2-0.6
		c-0.4-0.1-0.9-0.2-1.5-0.2c-1.3,0-2.4,0.4-3.1,1.3c-0.8,0.9-1.1,2.1-1.1,3.7c0,1.6,0.4,2.8,1.1,3.7c0.7,0.9,1.8,1.3,3.1,1.3
		c0.6,0,1.1-0.1,1.6-0.2c0.5-0.2,0.9-0.4,1.3-0.7L57,20.1z"/>
	<path class="st0" d="M67.1,16.6c0,0.7-0.1,1.4-0.3,1.9c-0.2,0.6-0.5,1.1-0.9,1.5c-0.4,0.4-0.9,0.7-1.4,1s-1.2,0.3-1.8,0.3
		c-0.7,0-1.3-0.1-1.8-0.3c-0.5-0.2-1-0.5-1.4-1c-0.4-0.4-0.7-0.9-0.9-1.5c-0.2-0.6-0.3-1.2-0.3-1.9s0.1-1.4,0.3-1.9
		c0.2-0.6,0.5-1.1,0.9-1.5c0.4-0.4,0.8-0.7,1.4-1c0.5-0.2,1.2-0.3,1.8-0.3c0.7,0,1.3,0.1,1.8,0.3c0.6,0.2,1,0.5,1.4,1
		c0.4,0.4,0.7,0.9,0.9,1.5C67,15.2,67.1,15.9,67.1,16.6z M65.4,16.6c0-1.1-0.2-1.9-0.7-2.5c-0.5-0.6-1.2-0.9-2.1-0.9
		c-0.9,0-1.6,0.3-2.1,0.9c-0.5,0.6-0.7,1.4-0.7,2.5c0,1.1,0.2,1.9,0.7,2.5c0.5,0.6,1.2,0.9,2.1,0.9c0.9,0,1.6-0.3,2.1-0.9
		C65.2,18.5,65.4,17.6,65.4,16.6z"/>
	<path class="st0" d="M69.3,12.1h0.8c0.5,0,0.7,0.2,0.7,0.6v0.9c0.3-0.5,0.6-0.9,1.1-1.2c0.5-0.3,1-0.4,1.7-0.4c0.2,0,0.3,0,0.5,0
		c0.1,0,0.2,0,0.3,0.1v1.3h-0.6c-1,0-1.7,0.3-2.2,0.8c-0.5,0.5-0.7,1.4-0.7,2.6v4.3h-1.6V12.1z"/>
	<path class="st0" d="M76.8,17c0.1,1,0.4,1.7,0.9,2.2c0.5,0.5,1.3,0.8,2.2,0.8c0.9,0,1.7-0.2,2.3-0.7l0.7,1.1
		c-0.4,0.4-0.9,0.6-1.4,0.8c-0.5,0.2-1.1,0.3-1.7,0.3c-0.7,0-1.3-0.1-1.9-0.3s-1-0.5-1.4-0.9c-0.4-0.4-0.7-0.9-0.9-1.5
		c-0.2-0.6-0.3-1.3-0.3-2.1c0-0.7,0.1-1.4,0.3-2c0.2-0.6,0.5-1.1,0.9-1.5s0.8-0.7,1.4-0.9c0.5-0.2,1.1-0.3,1.7-0.3s1.1,0.1,1.6,0.3
		c0.5,0.2,0.8,0.5,1.2,0.8c0.3,0.4,0.5,0.8,0.7,1.3c0.2,0.5,0.2,1,0.2,1.6c0,0.4,0,0.7-0.1,1.1H76.8z M79.6,13.2
		c-0.7,0-1.4,0.2-1.8,0.7c-0.5,0.5-0.8,1.1-0.9,1.9h4.9v-0.1c0-0.8-0.2-1.4-0.6-1.8S80.3,13.2,79.6,13.2z"/>
	<path class="st0" d="M99.1,12.1l2.7,7.3l2.8-7.3h1.6l-3.6,9H101l-3.6-9H99.1z"/>
	<path class="st0" d="M109.7,21.1H108V8.7h4.3c1.4,0,2.4,0.3,3.2,1s1.1,1.6,1.1,2.9c0,1.2-0.4,2.2-1.1,2.9c-0.7,0.7-1.8,1-3.2,1
		h-2.6V21.1z M109.7,15.1h2.5c0.9,0,1.5-0.2,2-0.6c0.5-0.4,0.7-1,0.7-1.9c0-0.9-0.2-1.5-0.7-1.9s-1.1-0.6-2-0.6h-2.5V15.1z"/>
	<path class="st0" d="M118.9,12.1h0.8c0.5,0,0.7,0.2,0.7,0.6v0.9c0.3-0.5,0.6-0.9,1.1-1.2c0.5-0.3,1-0.4,1.7-0.4c0.2,0,0.3,0,0.5,0
		c0.1,0,0.2,0,0.3,0.1v1.3h-0.6c-1,0-1.7,0.3-2.2,0.8c-0.5,0.5-0.7,1.4-0.7,2.6v4.3h-1.6V12.1z"/>
	<path class="st0" d="M133.6,16.6c0,0.7-0.1,1.4-0.3,1.9c-0.2,0.6-0.5,1.1-0.9,1.5c-0.4,0.4-0.9,0.7-1.4,1s-1.2,0.3-1.8,0.3
		c-0.7,0-1.3-0.1-1.8-0.3c-0.5-0.2-1-0.5-1.4-1c-0.4-0.4-0.7-0.9-0.9-1.5c-0.2-0.6-0.3-1.2-0.3-1.9s0.1-1.4,0.3-1.9
		c0.2-0.6,0.5-1.1,0.9-1.5c0.4-0.4,0.8-0.7,1.4-1c0.5-0.2,1.2-0.3,1.8-0.3c0.7,0,1.3,0.1,1.8,0.3c0.6,0.2,1,0.5,1.4,1
		c0.4,0.4,0.7,0.9,0.9,1.5C133.5,15.2,133.6,15.9,133.6,16.6z M132,16.6c0-1.1-0.2-1.9-0.7-2.5c-0.5-0.6-1.2-0.9-2.1-0.9
		c-0.9,0-1.6,0.3-2.1,0.9c-0.5,0.6-0.7,1.4-0.7,2.5c0,1.1,0.2,1.9,0.7,2.5c0.5,0.6,1.2,0.9,2.1,0.9c0.9,0,1.6-0.3,2.1-0.9
		C131.7,18.5,132,17.6,132,16.6z"/>
	<path class="st0" d="M8.3,39.3c-0.6,0-1.2-0.1-1.7-0.4s-0.9-0.6-1.2-1.1v5H3.9V30.1h0.8c0.5,0,0.7,0.2,0.7,0.6v0.7
		c0.3-0.5,0.7-0.9,1.2-1.2c0.6-0.3,1.2-0.4,2-0.4c0.6,0,1.2,0.1,1.6,0.3c0.5,0.2,0.9,0.5,1.2,0.9c0.3,0.4,0.6,0.9,0.8,1.4
		s0.3,1.2,0.3,1.9c0,0.7-0.1,1.4-0.3,2c-0.2,0.6-0.4,1.1-0.8,1.6c-0.3,0.4-0.8,0.8-1.3,1C9.6,39.2,9,39.3,8.3,39.3z M5.4,34.7
		c0,1,0.2,1.8,0.7,2.4c0.5,0.6,1.1,0.9,2,0.9c0.9,0,1.5-0.3,2-0.9c0.5-0.6,0.7-1.4,0.7-2.5c0-1.1-0.2-1.9-0.6-2.4
		c-0.4-0.6-1.1-0.8-1.9-0.8c-0.9,0-1.6,0.3-2.1,0.9S5.4,33.6,5.4,34.7z"/>
	<path class="st0" d="M14.7,30.1h0.8c0.5,0,0.7,0.2,0.7,0.6v0.9c0.3-0.5,0.6-0.9,1.1-1.2c0.5-0.3,1-0.4,1.7-0.4c0.2,0,0.3,0,0.5,0
		c0.1,0,0.2,0,0.3,0.1v1.3h-0.6c-1,0-1.7,0.3-2.2,0.8c-0.5,0.5-0.7,1.4-0.7,2.6v4.3h-1.6V30.1z"/>
	<path class="st0" d="M29.5,34.6c0,0.7-0.1,1.4-0.3,1.9c-0.2,0.6-0.5,1.1-0.9,1.5c-0.4,0.4-0.9,0.7-1.4,1c-0.6,0.2-1.2,0.3-1.8,0.3
		c-0.7,0-1.3-0.1-1.8-0.3c-0.5-0.2-1-0.5-1.4-1s-0.7-0.9-0.9-1.5c-0.2-0.6-0.3-1.2-0.3-1.9s0.1-1.4,0.3-1.9c0.2-0.6,0.5-1.1,0.9-1.5
		s0.8-0.7,1.4-1c0.5-0.2,1.2-0.3,1.8-0.3c0.7,0,1.3,0.1,1.8,0.3c0.6,0.2,1,0.5,1.4,1c0.4,0.4,0.7,0.9,0.9,1.5
		C29.4,33.2,29.5,33.9,29.5,34.6z M27.8,34.6c0-1.1-0.2-1.9-0.7-2.5c-0.5-0.6-1.2-0.9-2.1-0.9c-0.9,0-1.6,0.3-2.1,0.9
		c-0.5,0.6-0.7,1.4-0.7,2.5s0.2,1.9,0.7,2.5c0.5,0.6,1.2,0.9,2.1,0.9c0.9,0,1.6-0.3,2.1-0.9C27.6,36.5,27.8,35.6,27.8,34.6z"/>
	<path class="st0" d="M32.9,34.6c0,1.1,0.3,1.9,0.8,2.5c0.5,0.6,1.3,0.9,2.2,0.9c0.3,0,0.7,0,1.1-0.1s0.7-0.3,1-0.5l0.6,1.1
		c-0.7,0.6-1.7,0.9-2.8,0.9c-0.8,0-1.4-0.1-2-0.4c-0.6-0.2-1-0.6-1.4-1s-0.7-0.9-0.8-1.5c-0.2-0.6-0.3-1.2-0.3-1.9
		c0-0.7,0.1-1.4,0.3-2s0.5-1.1,0.9-1.5c0.4-0.4,0.9-0.7,1.4-1c0.6-0.2,1.2-0.3,1.9-0.3c1.1,0,2,0.3,2.8,0.9L38,31.8
		c-0.2-0.2-0.5-0.3-0.8-0.4s-0.7-0.2-1.2-0.2c-0.9,0-1.7,0.3-2.2,0.8C33.2,32.6,32.9,33.5,32.9,34.6z"/>
	<path class="st0" d="M41.4,35c0.1,1,0.4,1.7,0.9,2.2c0.5,0.5,1.3,0.8,2.2,0.8c0.9,0,1.7-0.2,2.3-0.7l0.7,1.1
		c-0.4,0.4-0.9,0.6-1.4,0.8c-0.5,0.2-1.1,0.3-1.7,0.3c-0.7,0-1.3-0.1-1.9-0.3s-1-0.5-1.4-0.9c-0.4-0.4-0.7-0.9-0.9-1.5
		c-0.2-0.6-0.3-1.3-0.3-2.1c0-0.7,0.1-1.4,0.3-2c0.2-0.6,0.5-1.1,0.9-1.5c0.4-0.4,0.8-0.7,1.4-0.9c0.5-0.2,1.1-0.3,1.7-0.3
		s1.1,0.1,1.6,0.3c0.5,0.2,0.8,0.5,1.2,0.8c0.3,0.4,0.5,0.8,0.7,1.3c0.2,0.5,0.2,1,0.2,1.6c0,0.4,0,0.7-0.1,1.1H41.4z M44.1,31.2
		c-0.7,0-1.4,0.2-1.8,0.7c-0.5,0.5-0.8,1.1-0.9,1.9h4.9v-0.1c0-0.8-0.2-1.4-0.6-1.8C45.4,31.4,44.8,31.2,44.1,31.2z"/>
	<path class="st0" d="M52.9,31.2c-0.5,0-0.9,0.1-1.2,0.3c-0.3,0.2-0.5,0.5-0.5,1c0,0.2,0.1,0.4,0.2,0.6c0.1,0.2,0.4,0.4,0.9,0.5
		l1.7,0.5c0.8,0.2,1.4,0.6,1.7,0.9c0.4,0.4,0.5,0.9,0.5,1.5c0,0.8-0.3,1.5-0.9,2c-0.6,0.5-1.4,0.8-2.6,0.8c-0.7,0-1.4-0.1-2-0.3
		s-1.1-0.5-1.5-0.9L50,37c0.4,0.3,0.8,0.5,1.3,0.7s1,0.3,1.5,0.3c0.6,0,1-0.1,1.3-0.3c0.3-0.2,0.5-0.6,0.5-1.1
		c0-0.3-0.1-0.5-0.3-0.7c-0.2-0.2-0.5-0.3-0.9-0.5l-1.7-0.5c-0.7-0.2-1.3-0.5-1.7-0.9c-0.4-0.4-0.5-0.9-0.5-1.5
		c0-0.4,0.1-0.8,0.3-1.1c0.2-0.3,0.4-0.6,0.7-0.8c0.3-0.2,0.7-0.4,1.1-0.5c0.4-0.1,0.8-0.2,1.3-0.2c0.6,0,1.1,0.1,1.7,0.2
		c0.6,0.2,1,0.4,1.4,0.7l-0.6,1.1c-0.3-0.2-0.7-0.4-1.1-0.5S53.4,31.2,52.9,31.2z"/>
	<path class="st0" d="M61.3,31.2c-0.5,0-0.9,0.1-1.2,0.3c-0.3,0.2-0.5,0.5-0.5,1c0,0.2,0.1,0.4,0.2,0.6c0.1,0.2,0.4,0.4,0.9,0.5
		l1.7,0.5c0.8,0.2,1.4,0.6,1.7,0.9c0.4,0.4,0.5,0.9,0.5,1.5c0,0.8-0.3,1.5-0.9,2c-0.6,0.5-1.4,0.8-2.6,0.8c-0.7,0-1.4-0.1-2-0.3
		s-1.1-0.5-1.5-0.9l0.7-1.1c0.4,0.3,0.8,0.5,1.3,0.7s1,0.3,1.5,0.3c0.6,0,1-0.1,1.3-0.3c0.3-0.2,0.5-0.6,0.5-1.1
		c0-0.3-0.1-0.5-0.3-0.7c-0.2-0.2-0.5-0.3-0.9-0.5l-1.7-0.5c-0.7-0.2-1.3-0.5-1.7-0.9C58.1,33.5,58,33,58,32.4
		c0-0.4,0.1-0.8,0.3-1.1c0.2-0.3,0.4-0.6,0.7-0.8c0.3-0.2,0.7-0.4,1.1-0.5c0.4-0.1,0.8-0.2,1.3-0.2c0.6,0,1.1,0.1,1.7,0.2
		c0.6,0.2,1,0.4,1.4,0.7l-0.6,1.1c-0.3-0.2-0.7-0.4-1.1-0.5S61.8,31.2,61.3,31.2z"/>
	<path class="st0" d="M75.2,34.6c0,0.7-0.1,1.4-0.3,1.9c-0.2,0.6-0.5,1.1-0.9,1.5c-0.4,0.4-0.9,0.7-1.4,1c-0.6,0.2-1.2,0.3-1.8,0.3
		c-0.7,0-1.3-0.1-1.8-0.3c-0.5-0.2-1-0.5-1.4-1s-0.7-0.9-0.9-1.5c-0.2-0.6-0.3-1.2-0.3-1.9s0.1-1.4,0.3-1.9c0.2-0.6,0.5-1.1,0.9-1.5
		s0.8-0.7,1.4-1c0.5-0.2,1.2-0.3,1.8-0.3c0.7,0,1.3,0.1,1.8,0.3c0.6,0.2,1,0.5,1.4,1c0.4,0.4,0.7,0.9,0.9,1.5
		C75,33.2,75.2,33.9,75.2,34.6z M73.5,34.6c0-1.1-0.2-1.9-0.7-2.5c-0.5-0.6-1.2-0.9-2.1-0.9c-0.9,0-1.6,0.3-2.1,0.9
		c-0.5,0.6-0.7,1.4-0.7,2.5s0.2,1.9,0.7,2.5c0.5,0.6,1.2,0.9,2.1,0.9c0.9,0,1.6-0.3,2.1-0.9C73.2,36.5,73.5,35.6,73.5,34.6z"/>
	<path class="st0" d="M77.4,30.1h0.8c0.5,0,0.7,0.2,0.7,0.6v0.9c0.3-0.5,0.6-0.9,1.1-1.2c0.5-0.3,1-0.4,1.7-0.4c0.2,0,0.3,0,0.5,0
		c0.1,0,0.2,0,0.3,0.1v1.3H82c-1,0-1.7,0.3-2.2,0.8c-0.5,0.5-0.7,1.4-0.7,2.6v4.3h-1.6V30.1z"/>
	<path class="st0" d="M93,30.1v1.3h-2.4v7.7H89v-7.7h-1.5v-1.3H89v-1c0-1,0.3-1.7,0.8-2.2c0.5-0.5,1.3-0.8,2.3-0.8
		c0.2,0,0.4,0,0.6,0c0.2,0,0.3,0,0.5,0.1v1.2h-0.3c-0.4,0-0.7,0-1,0.1c-0.3,0-0.5,0.1-0.7,0.2c-0.2,0.1-0.3,0.3-0.4,0.5
		c-0.1,0.2-0.2,0.5-0.2,0.9v0.9H93z"/>
	<path class="st0" d="M101.1,39.1c-0.5,0-0.8-0.1-1.1-0.4c-0.2-0.2-0.3-0.6-0.4-1.1c-0.3,0.5-0.6,0.9-1.1,1.2
		c-0.5,0.3-1.1,0.4-1.8,0.4c-0.5,0-0.9-0.1-1.3-0.2c-0.4-0.1-0.7-0.3-0.9-0.6S94.2,38,94,37.6s-0.2-0.7-0.2-1.1
		c0-0.5,0.1-0.9,0.3-1.3c0.2-0.4,0.5-0.7,0.8-0.9c0.3-0.2,0.7-0.4,1.2-0.5c0.4-0.1,0.9-0.2,1.4-0.2h2v-0.5c0-0.6-0.2-1.1-0.5-1.5
		c-0.3-0.4-0.9-0.5-1.7-0.5c-0.5,0-0.9,0.1-1.4,0.2c-0.4,0.1-0.9,0.4-1.3,0.6l-0.6-1.1c0.5-0.4,1-0.6,1.6-0.8
		c0.6-0.2,1.2-0.3,1.8-0.3c0.5,0,0.9,0.1,1.4,0.2c0.4,0.1,0.8,0.3,1.1,0.6c0.3,0.3,0.6,0.6,0.8,1c0.2,0.4,0.3,1,0.3,1.6v4
		c0,0.3,0,0.4,0.1,0.5c0.1,0.1,0.3,0.1,0.6,0.1h0.2V39c-0.1,0-0.2,0-0.4,0.1C101.4,39.1,101.3,39.1,101.1,39.1z M97.6,34.9
		c-0.7,0-1.2,0.1-1.6,0.4s-0.6,0.7-0.6,1.2c0,0.5,0.1,0.8,0.4,1.1c0.3,0.3,0.7,0.4,1.3,0.4c0.4,0,0.7-0.1,1-0.2s0.6-0.3,0.8-0.5
		c0.2-0.2,0.4-0.5,0.5-0.8c0.1-0.3,0.2-0.7,0.2-1v-0.5H97.6z"/>
	<path class="st0" d="M115.4,39.1v-5.6c0-0.8-0.1-1.3-0.4-1.7c-0.3-0.4-0.7-0.5-1.4-0.5c-0.7,0-1.3,0.3-1.7,0.8
		c-0.4,0.5-0.6,1.3-0.6,2.2v4.9h-1.6v-5.6c0-0.8-0.1-1.3-0.4-1.7s-0.7-0.5-1.3-0.5c-0.7,0-1.3,0.3-1.7,0.8c-0.4,0.5-0.6,1.3-0.6,2.2
		v4.9h-1.6v-9h0.8c0.5,0,0.7,0.2,0.7,0.6v0.6c0.3-0.5,0.6-0.8,1.1-1.1s1-0.4,1.6-0.4c0.6,0,1.2,0.1,1.7,0.4c0.5,0.3,0.8,0.7,1.1,1.2
		c0.3-0.5,0.7-1,1.2-1.2c0.5-0.3,1.1-0.4,1.8-0.4c1,0,1.7,0.3,2.3,0.9c0.5,0.6,0.8,1.5,0.8,2.6v5.8H115.4z"/>
	<path class="st0" d="M119.7,26.5h1.7v1.8h-1.7V26.5z M121.3,39.1h-1.6v-9h1.6V39.1z"/>
	<path class="st0" d="M125.7,26.2v10.5c0,0.5,0.1,0.8,0.2,1s0.5,0.2,0.9,0.2h0.1v1.3c-0.1,0-0.2,0-0.3,0.1c-0.1,0-0.2,0-0.4,0
		c-0.7,0-1.3-0.2-1.6-0.6c-0.4-0.4-0.5-1-0.5-1.8V26.2H125.7z"/>
	<path class="st0" d="M129.3,30.1l2.7,7.3l2.8-7.3h1.6l-4.1,10.3c-0.2,0.4-0.3,0.8-0.5,1.1c-0.2,0.3-0.3,0.6-0.6,0.8
		c-0.2,0.2-0.5,0.4-0.8,0.5c-0.3,0.1-0.7,0.2-1.1,0.2c-0.2,0-0.4,0-0.5,0c-0.1,0-0.2,0-0.3-0.1v-1.2h0.5c0.3,0,0.5,0,0.7-0.1
		c0.2,0,0.3-0.1,0.5-0.2c0.1-0.1,0.3-0.2,0.4-0.4c0.1-0.2,0.2-0.4,0.3-0.7l0.4-1.2l-3.6-9.1H129.3z"/>
</g>
<g>
	<path class="st0" d="M42.4,10.4c0,0.3-0.1,0.6-0.2,0.8c-0.1,0.2-0.2,0.5-0.4,0.6c-0.2,0.2-0.4,0.3-0.6,0.4s-0.5,0.1-0.8,0.1
		s-0.6,0-0.8-0.1c-0.2-0.1-0.5-0.2-0.6-0.4c-0.2-0.2-0.3-0.4-0.4-0.6c-0.1-0.2-0.2-0.5-0.2-0.8s0.1-0.6,0.2-0.8
		c0.1-0.2,0.2-0.5,0.4-0.6c0.2-0.2,0.4-0.3,0.6-0.4c0.2-0.1,0.5-0.1,0.8-0.1s0.6,0,0.8,0.1c0.2,0.1,0.5,0.2,0.6,0.4
		c0.2,0.2,0.3,0.4,0.4,0.6C42.3,9.8,42.4,10.1,42.4,10.4z M38.8,10.4c0,0.5,0.1,0.9,0.4,1.2c0.3,0.3,0.7,0.4,1.1,0.4
		c0.5,0,0.8-0.1,1.1-0.4c0.3-0.3,0.4-0.7,0.4-1.2s-0.1-0.9-0.4-1.2c-0.3-0.3-0.7-0.4-1.1-0.4c-0.5,0-0.8,0.1-1.1,0.4
		C38.9,9.6,38.8,9.9,38.8,10.4z M41.3,11.4h-0.5l-0.5-0.7c0-0.1-0.1-0.1-0.1-0.1c0,0-0.1,0-0.2,0v0.8h-0.5v-2h0.8
		c0.2,0,0.4,0.1,0.6,0.2s0.2,0.3,0.2,0.5c0,0.2,0,0.3-0.1,0.4c-0.1,0.1-0.2,0.2-0.4,0.2L41.3,11.4z M40.3,10.3
		c0.3,0,0.4-0.1,0.4-0.3c0-0.1,0-0.2-0.1-0.2c-0.1,0-0.2-0.1-0.3-0.1H40v0.6H40.3z"/>
</g>
<g>
	<path class="st0" d="M42.4,10.4c0,0.3-0.1,0.6-0.2,0.8c-0.1,0.2-0.2,0.5-0.4,0.6c-0.2,0.2-0.4,0.3-0.6,0.4s-0.5,0.1-0.8,0.1
		s-0.6,0-0.8-0.1c-0.2-0.1-0.5-0.2-0.6-0.4c-0.2-0.2-0.3-0.4-0.4-0.6c-0.1-0.2-0.2-0.5-0.2-0.8s0.1-0.6,0.2-0.8
		c0.1-0.2,0.2-0.5,0.4-0.6c0.2-0.2,0.4-0.3,0.6-0.4c0.2-0.1,0.5-0.1,0.8-0.1s0.6,0,0.8,0.1c0.2,0.1,0.5,0.2,0.6,0.4
		c0.2,0.2,0.3,0.4,0.4,0.6C42.3,9.8,42.4,10.1,42.4,10.4z M38.8,10.4c0,0.5,0.1,0.9,0.4,1.2c0.3,0.3,0.7,0.4,1.1,0.4
		c0.5,0,0.8-0.1,1.1-0.4c0.3-0.3,0.4-0.7,0.4-1.2s-0.1-0.9-0.4-1.2c-0.3-0.3-0.7-0.4-1.1-0.4c-0.5,0-0.8,0.1-1.1,0.4
		C38.9,9.6,38.8,9.9,38.8,10.4z M41.3,11.4h-0.5l-0.5-0.7c0-0.1-0.1-0.1-0.1-0.1c0,0-0.1,0-0.2,0v0.8h-0.5v-2h0.8
		c0.2,0,0.4,0.1,0.6,0.2s0.2,0.3,0.2,0.5c0,0.2,0,0.3-0.1,0.4c-0.1,0.1-0.2,0.2-0.4,0.2L41.3,11.4z M40.3,10.3
		c0.3,0,0.4-0.1,0.4-0.3c0-0.1,0-0.2-0.1-0.2c-0.1,0-0.2-0.1-0.3-0.1H40v0.6H40.3z"/>
</g>
<g>
	<path class="st0" d="M85.8,13.7V9.8h-1.6V9h4.3v0.8h-1.6v3.9H85.8z M89.1,13.7V9h1.1l1.4,2.7L92.9,9H94v4.7h-0.9v-3.3L92,12.6h-0.9
		L90,10.5v3.2H89.1z"/>
</g>
<g>
	<path class="st0" d="M136.4,13.7V9.8h-1.6V9h4.3v0.8h-1.6v3.9H136.4z M139.7,13.7V9h1.1l1.4,2.7l1.4-2.7h1.1v4.7h-0.9v-3.3
		l-1.1,2.2h-0.9l-1.1-2.1v3.2H139.7z"/>
</g>
</svg>
