<?xml version="1.0" encoding="utf-8"?>
<!-- Generator: Adobe Illustrator 23.0.0, SVG Export Plug-In . SVG Version: 6.00 Build 0)  -->
<svg version="1.1" id="Layer_1" xmlns="http://www.w3.org/2000/svg" xmlns:xlink="http://www.w3.org/1999/xlink" x="0px" y="0px"
	 width="180px" height="30px" viewBox="0 0 180 30" style="enable-background:new 0 0 180 30;" xml:space="preserve">
<style type="text/css">
	.st0{clip-path:url(#SVGID_2_);fill:#FFFFFF;}
	.st1{clip-path:url(#SVGID_4_);fill:#FFFFFF;}
	.st2{clip-path:url(#SVGID_6_);fill:#FFFFFF;}
	.st3{clip-path:url(#SVGID_8_);fill:#FFFFFF;}
	.st4{clip-path:url(#SVGID_10_);fill:#FFFFFF;}
	.st5{clip-path:url(#SVGID_12_);fill:#FFFFFF;}
	.st6{clip-path:url(#SVGID_14_);fill:#FFFFFF;}
	.st7{clip-path:url(#SVGID_16_);fill:#FFFFFF;}
	.st8{clip-path:url(#SVGID_18_);fill:#FFFFFF;}
	.st9{clip-path:url(#SVGID_20_);fill:#FFFFFF;}
	.st10{clip-path:url(#SVGID_22_);fill:#FFFFFF;}
	.st11{clip-path:url(#SVGID_24_);fill:#FFFFFF;}
	.st12{clip-path:url(#SVGID_26_);fill:#FFFFFF;}
	.st13{clip-path:url(#SVGID_28_);fill:#FFFFFF;}
	.st14{clip-path:url(#SVGID_30_);fill:#FFFFFF;}
	.st15{clip-path:url(#SVGID_32_);fill:#FFFFFF;}
</style>
<g>
	<defs>
		<rect id="SVGID_1_" x="1.1" y="1.7" width="177.7" height="26.6"/>
	</defs>
	<clipPath id="SVGID_2_">
		<use xlink:href="#SVGID_1_"  style="overflow:visible;"/>
	</clipPath>
	<path class="st0" d="M56.1,7l-4.5,15.9h-2.2l-3.2-11.6c-0.1-0.4-0.3-0.9-0.3-1.6c0,0.5-0.1,1-0.3,1.6l-3.2,11.6h-2.2L35.3,7h2
		l3.3,12.2c0.1,0.5,0.3,1,0.3,1.6c0-0.4,0.1-0.9,0.3-1.6L44.7,7h1.8l3.3,12.3c0.1,0.4,0.3,0.9,0.3,1.4c0-0.4,0.1-0.9,0.3-1.4L53.6,7
		C53.6,7,56.1,7,56.1,7z"/>
</g>
<g>
	<defs>
		<rect id="SVGID_3_" x="1.1" y="1.7" width="177.7" height="26.6"/>
	</defs>
	<clipPath id="SVGID_4_">
		<use xlink:href="#SVGID_3_"  style="overflow:visible;"/>
	</clipPath>
	<path class="st1" d="M59.8,7.5c0,0.4-0.1,0.6-0.4,0.8c-0.3,0.3-0.5,0.4-0.8,0.4s-0.6-0.1-0.8-0.3c-0.3-0.3-0.4-0.5-0.4-0.8
		c0-0.3,0.1-0.5,0.4-0.8s0.5-0.4,0.8-0.4c0.4,0,0.6,0.1,0.8,0.4C59.7,7,59.8,7.2,59.8,7.5 M59.6,22.8h-1.9V11.5h1.9V22.8z"/>
</g>
<g>
	<defs>
		<rect id="SVGID_5_" x="1.1" y="1.7" width="177.7" height="26.6"/>
	</defs>
	<clipPath id="SVGID_6_">
		<use xlink:href="#SVGID_5_"  style="overflow:visible;"/>
	</clipPath>
	<path class="st2" d="M71.8,22.8H70v-6.4c0-2.4-0.9-3.6-2.7-3.6c-0.9,0-1.6,0.4-2.3,1c-0.6,0.6-0.9,1.6-0.9,2.6v6.4h-1.9V11.5h1.9
		v1.9c0.8-1.4,2.2-2.2,3.7-2.2c1.2,0,2.2,0.4,2.8,1.2c0.6,0.8,0.9,2,0.9,3.5v6.9H71.8z"/>
</g>
<g>
	<defs>
		<rect id="SVGID_7_" x="1.1" y="1.7" width="177.7" height="26.6"/>
	</defs>
	<clipPath id="SVGID_8_">
		<use xlink:href="#SVGID_7_"  style="overflow:visible;"/>
	</clipPath>
	<path class="st3" d="M84.3,22.8h-1.9V21c-0.8,1.4-2.2,2.2-3.9,2.2c-1.4,0-2.6-0.5-3.5-1.6c-0.8-1-1.3-2.4-1.3-4.1
		c0-1.9,0.5-3.3,1.4-4.5c0.9-1.2,2.2-1.8,3.7-1.8c1.5,0,2.7,0.6,3.3,1.9V6.1H84v16.7C84,22.8,84.3,22.8,84.3,22.8z M82.5,17.8V16
		c0-0.9-0.3-1.8-0.9-2.3c-0.6-0.6-1.3-0.9-2.3-0.9c-1,0-2,0.4-2.6,1.2s-0.9,1.9-0.9,3.3c0,1.3,0.3,2.3,0.9,3.1s1.4,1,2.4,1
		c0.9,0,1.9-0.4,2.4-1C82.1,19.7,82.5,18.8,82.5,17.8"/>
</g>
<g>
	<defs>
		<rect id="SVGID_9_" x="1.1" y="1.7" width="177.7" height="26.6"/>
	</defs>
	<clipPath id="SVGID_10_">
		<use xlink:href="#SVGID_9_"  style="overflow:visible;"/>
	</clipPath>
	<path class="st4" d="M97.7,17.2c0,1.8-0.5,3.2-1.4,4.4c-1,0.9-2.4,1.4-4.1,1.4c-1.8,0-3.1-0.5-4-1.6c-0.9-1-1.4-2.6-1.4-4.3
		c0-1.9,0.5-3.3,1.6-4.4c1-1,2.4-1.6,4.3-1.6c1.8,0,3,0.5,4,1.6C97.1,13.9,97.7,15.3,97.7,17.2 M95.7,17.2c0-1.4-0.3-2.6-0.9-3.3
		c-0.6-0.8-1.4-1.2-2.7-1.2s-2.2,0.4-2.8,1.2c-0.6,0.8-1,1.9-1,3.3c0,1.3,0.4,2.4,1,3.2c0.6,0.8,1.6,1.2,2.8,1.2
		c1.2,0,2.2-0.4,2.7-1C95.5,19.7,95.7,18.7,95.7,17.2"/>
</g>
<g>
	<defs>
		<rect id="SVGID_11_" x="1.1" y="1.7" width="177.7" height="26.6"/>
	</defs>
	<clipPath id="SVGID_12_">
		<use xlink:href="#SVGID_11_"  style="overflow:visible;"/>
	</clipPath>
	<path class="st5" d="M114.1,11.5l-3.3,11.3h-1.9l-2.3-8.1c-0.1-0.3-0.1-0.6-0.1-1c0,0.3-0.1,0.5-0.3,1l-2.6,8.1h-1.9l-3.5-11.3h1.8
		l2.3,8.6c0.1,0.3,0.1,0.6,0.1,1h0.1c0-0.3,0.1-0.6,0.3-1l2.6-8.6h1.6l2.4,8.6c0.1,0.3,0.1,0.6,0.1,1h0.1c0-0.4,0.1-0.6,0.1-1
		l2.3-8.6C112,11.5,114.1,11.5,114.1,11.5z"/>
</g>
<g>
	<g>
		<defs>
			<rect id="SVGID_13_" x="1.1" y="1.7" width="177.7" height="26.6"/>
		</defs>
		<clipPath id="SVGID_14_">
			<use xlink:href="#SVGID_13_"  style="overflow:visible;"/>
		</clipPath>
		<path class="st6" d="M121.8,19.8c0,0.9-0.4,1.8-1,2.4c-0.8,0.6-1.8,0.9-3.1,0.9c-1,0-2-0.3-2.8-0.6v-2c0.9,0.6,1.9,1,3,1
			c1.4,0,2.2-0.5,2.2-1.6c0-0.4-0.1-0.8-0.4-1c-0.3-0.3-0.9-0.6-1.9-1c-1-0.4-1.8-0.9-2.2-1.3c-0.4-0.5-0.6-1.2-0.6-2
			c0-0.9,0.4-1.8,1-2.4c0.8-0.6,1.8-0.9,2.8-0.9c0.9,0,1.8,0.1,2.4,0.5v1.9c-0.8-0.5-1.6-0.8-2.6-0.8c-0.5,0-1,0.1-1.4,0.4
			c-0.4,0.3-0.5,0.6-0.5,1.2s0.1,0.9,0.4,1.2s0.8,0.5,1.8,0.9c1,0.4,1.9,0.9,2.3,1.4C121.6,18.4,121.8,19.1,121.8,19.8"/>
	</g>
</g>
<g>
	<g>
		<defs>
			<rect id="SVGID_15_" x="1.1" y="1.7" width="177.7" height="26.6"/>
		</defs>
		<clipPath id="SVGID_16_">
			<use xlink:href="#SVGID_15_"  style="overflow:visible;"/>
		</clipPath>
		<path class="st7" d="M129.3,22.8V9.2c-0.3,0.3-0.8,0.6-1.6,1c-0.8,0.4-1.4,0.6-2,0.8V9.2c0.8-0.3,1.6-0.5,2.6-1
			c0.9-0.5,1.6-0.9,2.3-1.4h0.6V23h-1.9C129.3,23,129.3,22.8,129.3,22.8z"/>
	</g>
</g>
<g>
	<g>
		<defs>
			<rect id="SVGID_17_" x="1.1" y="1.7" width="177.7" height="26.6"/>
		</defs>
		<clipPath id="SVGID_18_">
			<use xlink:href="#SVGID_17_"  style="overflow:visible;"/>
		</clipPath>
		<path class="st8" d="M144,14.8c0,2.7-0.4,4.6-1.3,6.2c-0.9,1.5-2.3,2.2-4,2.2c-1.6,0-2.8-0.6-3.7-2c-0.9-1.3-1.3-3.3-1.3-5.9
			c0-2.8,0.4-4.8,1.3-6.3c0.9-1.4,2.3-2.2,4-2.2C142.4,6.7,144,9.4,144,14.8 M142.2,15.1c0-4.5-1-6.8-3.2-6.8
			c-2.3,0-3.3,2.3-3.3,6.9c0,4.3,1,6.4,3.3,6.4C141.1,21.6,142.2,19.3,142.2,15.1"/>
	</g>
</g>
<g>
	<g>
		<defs>
			<rect id="SVGID_19_" x="1.1" y="1.7" width="177.7" height="26.6"/>
		</defs>
		<clipPath id="SVGID_20_">
			<use xlink:href="#SVGID_19_"  style="overflow:visible;"/>
		</clipPath>
		<path class="st9" d="M159.3,11.7c0,1.4-0.5,2.8-1.6,3.7c-1,0.9-2.4,1.4-4.1,1.4h-2.2v6h-1.9V7h4.4c1.8,0,3.1,0.4,4,1.2
			S159.3,10.3,159.3,11.7 M157.3,11.9c0-2.2-1.2-3.2-3.7-3.2h-2.2v6.6h2c1.3,0,2.3-0.3,3-0.9C157,13.8,157.3,12.9,157.3,11.9"/>
	</g>
</g>
<g>
	<g>
		<defs>
			<rect id="SVGID_21_" x="1.1" y="1.7" width="177.7" height="26.6"/>
		</defs>
		<clipPath id="SVGID_22_">
			<use xlink:href="#SVGID_21_"  style="overflow:visible;"/>
		</clipPath>
		<path class="st10" d="M167.1,13.4c-0.3-0.3-0.8-0.4-1.3-0.4c-0.8,0-1.4,0.4-2,1c-0.5,0.8-0.8,1.8-0.8,3v5.8h-1.9V11.5h1.9v2.3
			c0.3-0.8,0.6-1.3,1.2-1.9c0.5-0.4,1-0.6,1.9-0.6c0.5,0,0.8,0,1,0.1C167.1,11.4,167.1,13.4,167.1,13.4z"/>
	</g>
</g>
<g>
	<g>
		<defs>
			<rect id="SVGID_23_" x="1.1" y="1.7" width="177.7" height="26.6"/>
		</defs>
		<clipPath id="SVGID_24_">
			<use xlink:href="#SVGID_23_"  style="overflow:visible;"/>
		</clipPath>
		<path class="st11" d="M178.9,17.2c0,1.8-0.5,3.2-1.4,4.4c-1,1-2.4,1.6-4.1,1.6c-1.8,0-3.1-0.5-4-1.6c-0.9-1-1.4-2.6-1.4-4.3
			c0-1.9,0.5-3.3,1.6-4.4c1-1,2.4-1.6,4.3-1.6c1.8,0,3,0.5,4,1.6C178.3,13.9,178.9,15.3,178.9,17.2 M177,17.2c0-1.4-0.3-2.6-0.9-3.3
			c-0.6-0.8-1.4-1.2-2.7-1.2s-2.2,0.4-2.8,1.2c-0.6,0.8-1,1.9-1,3.3c0,1.3,0.4,2.4,1,3.2s1.6,1.2,2.8,1.2c1.1,0,2.2-0.4,2.7-1
			C176.8,19.7,177,18.7,177,17.2"/>
	</g>
</g>
<g>
	<g>
		<defs>
			<rect id="SVGID_25_" x="1.1" y="1.7" width="177.7" height="26.6"/>
		</defs>
		<clipPath id="SVGID_26_">
			<use xlink:href="#SVGID_25_"  style="overflow:visible;"/>
		</clipPath>
		<path class="st12" d="M12.4,14.7V3.9L1.1,5.4v9.3H12.4z"/>
	</g>
</g>
<g>
	<g>
		<defs>
			<rect id="SVGID_27_" x="1.1" y="1.7" width="177.7" height="26.6"/>
		</defs>
		<clipPath id="SVGID_28_">
			<use xlink:href="#SVGID_27_"  style="overflow:visible;"/>
		</clipPath>
		<path class="st13" d="M13,14.7h14.7v-13L13,3.7V14.7z"/>
	</g>
</g>
<g>
	<g>
		<defs>
			<rect id="SVGID_29_" x="1.1" y="1.7" width="177.7" height="26.6"/>
		</defs>
		<clipPath id="SVGID_30_">
			<use xlink:href="#SVGID_29_"  style="overflow:visible;"/>
		</clipPath>
		<path class="st14" d="M13,15.2v10.9l14.7,2.2V15.2H13z"/>
	</g>
</g>
<g>
	<g>
		<defs>
			<rect id="SVGID_31_" x="1.1" y="1.7" width="177.7" height="26.6"/>
		</defs>
		<clipPath id="SVGID_32_">
			<use xlink:href="#SVGID_31_"  style="overflow:visible;"/>
		</clipPath>
		<path class="st15" d="M12.4,15.2H1.1v9.4l11.2,1.5V15.2z"/>
	</g>
</g>
</svg>
