<?xml version="1.0" encoding="utf-8"?>
<!-- Generator: Adobe Illustrator 23.0.1, SVG Export Plug-In . SVG Version: 6.00 Build 0)  -->
<svg version="1.1" id="Layer_2" xmlns="http://www.w3.org/2000/svg" xmlns:xlink="http://www.w3.org/1999/xlink" x="0px" y="0px"
	 width="586px" height="125px" viewBox="0 0 586 125" style="enable-background:new 0 0 586 125;" xml:space="preserve">
<style type="text/css">
	.st0{fill:#FFFFFF;}
</style>
<g>
	<path class="st0" d="M56.1,22.6H45.6V52h-6.5V22.6H28.7v-5.3h27.4V22.6z"/>
	<path class="st0" d="M89.9,17.3V52h-6.5V36.8H67.1V52h-6.5V17.3h6.5v14.9h16.3V17.3H89.9z"/>
	<path class="st0" d="M104.1,52h-6.5V17.3h6.5V52z"/>
	<path class="st0" d="M130.4,23.6c-0.2,0.3-0.4,0.6-0.6,0.7c-0.2,0.2-0.5,0.2-0.8,0.2c-0.3,0-0.7-0.1-1.1-0.4
		c-0.4-0.2-0.9-0.5-1.4-0.8c-0.5-0.3-1.2-0.6-1.9-0.8c-0.7-0.2-1.6-0.4-2.6-0.4c-0.9,0-1.7,0.1-2.4,0.3c-0.7,0.2-1.2,0.5-1.7,0.9
		c-0.5,0.4-0.8,0.8-1,1.4c-0.2,0.5-0.3,1.1-0.3,1.8c0,0.8,0.2,1.5,0.7,2c0.5,0.5,1.1,1,1.8,1.4c0.8,0.4,1.6,0.7,2.6,1
		c1,0.3,1.9,0.6,3,1c1,0.3,2,0.7,3,1.2s1.8,1,2.6,1.7c0.8,0.7,1.4,1.5,1.8,2.6s0.7,2.2,0.7,3.7c0,1.6-0.3,3-0.8,4.4
		c-0.5,1.4-1.3,2.6-2.4,3.6c-1,1-2.3,1.8-3.8,2.4c-1.5,0.6-3.2,0.9-5.1,0.9c-1.1,0-2.2-0.1-3.3-0.3c-1.1-0.2-2.1-0.5-3.1-0.9
		c-1-0.4-1.9-0.9-2.8-1.4c-0.9-0.6-1.6-1.2-2.3-1.9l1.9-3.1c0.2-0.2,0.4-0.4,0.6-0.6c0.3-0.2,0.5-0.2,0.8-0.2c0.4,0,0.8,0.2,1.3,0.5
		c0.5,0.3,1,0.7,1.7,1.1c0.6,0.4,1.4,0.8,2.2,1.1c0.9,0.3,1.9,0.5,3.1,0.5c1.8,0,3.3-0.4,4.3-1.3c1-0.9,1.5-2.1,1.5-3.8
		c0-0.9-0.2-1.7-0.7-2.2c-0.5-0.6-1.1-1.1-1.8-1.5c-0.8-0.4-1.6-0.7-2.6-1c-1-0.3-1.9-0.6-2.9-0.9c-1-0.3-2-0.7-2.9-1.2
		c-1-0.4-1.8-1-2.6-1.8c-0.8-0.7-1.4-1.6-1.8-2.7s-0.7-2.4-0.7-4c0-1.3,0.3-2.5,0.8-3.7c0.5-1.2,1.2-2.3,2.2-3.2
		c1-0.9,2.1-1.7,3.6-2.2c1.4-0.6,3-0.8,4.8-0.8c2,0,3.9,0.3,5.7,1c1.7,0.6,3.2,1.5,4.4,2.7L130.4,23.6z"/>
	<path class="st0" d="M156.3,52h-6.5V17.3h6.5V52z"/>
	<path class="st0" d="M182.6,23.6c-0.2,0.3-0.4,0.6-0.6,0.7c-0.2,0.2-0.5,0.2-0.8,0.2c-0.3,0-0.7-0.1-1.1-0.4
		c-0.4-0.2-0.9-0.5-1.4-0.8c-0.5-0.3-1.2-0.6-1.9-0.8c-0.7-0.2-1.6-0.4-2.6-0.4c-0.9,0-1.7,0.1-2.4,0.3c-0.7,0.2-1.2,0.5-1.7,0.9
		c-0.5,0.4-0.8,0.8-1,1.4c-0.2,0.5-0.3,1.1-0.3,1.8c0,0.8,0.2,1.5,0.7,2c0.5,0.5,1.1,1,1.8,1.4c0.8,0.4,1.6,0.7,2.6,1
		c1,0.3,1.9,0.6,3,1c1,0.3,2,0.7,3,1.2s1.8,1,2.6,1.7c0.8,0.7,1.4,1.5,1.8,2.6s0.7,2.2,0.7,3.7c0,1.6-0.3,3-0.8,4.4
		c-0.5,1.4-1.3,2.6-2.4,3.6c-1,1-2.3,1.8-3.8,2.4c-1.5,0.6-3.2,0.9-5.1,0.9c-1.1,0-2.2-0.1-3.3-0.3c-1.1-0.2-2.1-0.5-3.1-0.9
		c-1-0.4-1.9-0.9-2.8-1.4c-0.9-0.6-1.6-1.2-2.3-1.9l1.9-3.1c0.2-0.2,0.4-0.4,0.6-0.6c0.3-0.2,0.5-0.2,0.8-0.2c0.4,0,0.8,0.2,1.3,0.5
		c0.5,0.3,1,0.7,1.7,1.1c0.6,0.4,1.4,0.8,2.2,1.1c0.9,0.3,1.9,0.5,3.1,0.5c1.8,0,3.3-0.4,4.3-1.3c1-0.9,1.5-2.1,1.5-3.8
		c0-0.9-0.2-1.7-0.7-2.2c-0.5-0.6-1.1-1.1-1.8-1.5c-0.8-0.4-1.6-0.7-2.6-1c-1-0.3-1.9-0.6-2.9-0.9c-1-0.3-2-0.7-2.9-1.2
		c-1-0.4-1.8-1-2.6-1.8c-0.8-0.7-1.4-1.6-1.8-2.7s-0.7-2.4-0.7-4c0-1.3,0.3-2.5,0.8-3.7c0.5-1.2,1.2-2.3,2.2-3.2
		c1-0.9,2.1-1.7,3.6-2.2c1.4-0.6,3-0.8,4.8-0.8c2,0,3.9,0.3,5.7,1c1.7,0.6,3.2,1.5,4.4,2.7L182.6,23.6z"/>
	<path class="st0" d="M231.3,17.3V52H228c-0.5,0-0.9-0.1-1.3-0.3c-0.3-0.2-0.7-0.5-1-0.9l-18.1-23.1c0.1,1.1,0.1,2,0.1,2.9V52h-5.7
		V17.3h3.4c0.3,0,0.5,0,0.7,0s0.4,0.1,0.5,0.1c0.2,0.1,0.3,0.2,0.4,0.3c0.1,0.1,0.3,0.3,0.5,0.5l18.2,23.2c0-0.6-0.1-1.1-0.1-1.7
		c0-0.5,0-1,0-1.5V17.3H231.3z"/>
	<path class="st0" d="M272.2,34.6c0,2.5-0.4,4.9-1.3,7.1c-0.8,2.2-2,4-3.6,5.6c-1.5,1.6-3.4,2.8-5.5,3.7c-2.2,0.9-4.6,1.3-7.2,1.3
		c-2.6,0-5-0.4-7.2-1.3c-2.2-0.9-4-2.1-5.6-3.7c-1.5-1.6-2.7-3.5-3.6-5.6c-0.8-2.2-1.3-4.5-1.3-7.1s0.4-4.9,1.3-7.1
		c0.8-2.2,2-4,3.6-5.6s3.4-2.8,5.6-3.7c2.2-0.9,4.6-1.3,7.2-1.3c1.8,0,3.4,0.2,5,0.6c1.6,0.4,3,1,4.3,1.7s2.5,1.6,3.5,2.7
		c1,1.1,1.9,2.3,2.6,3.6c0.7,1.3,1.3,2.7,1.6,4.3C272,31.3,272.2,33,272.2,34.6z M265.6,34.6c0-1.9-0.3-3.6-0.8-5.1
		c-0.5-1.5-1.2-2.8-2.2-3.9c-0.9-1.1-2.1-1.9-3.4-2.4c-1.4-0.6-2.9-0.8-4.6-0.8c-1.7,0-3.2,0.3-4.6,0.8c-1.4,0.6-2.5,1.4-3.5,2.4
		c-1,1.1-1.7,2.3-2.2,3.9c-0.5,1.5-0.8,3.2-0.8,5.1c0,1.9,0.3,3.6,0.8,5.1c0.5,1.5,1.2,2.8,2.2,3.8c1,1,2.1,1.9,3.5,2.4
		c1.4,0.6,2.9,0.8,4.6,0.8c1.7,0,3.2-0.3,4.6-0.8c1.4-0.6,2.5-1.4,3.4-2.4c0.9-1,1.7-2.3,2.2-3.8S265.6,36.6,265.6,34.6z"/>
	<path class="st0" d="M300.9,22.6h-10.5V52H284V22.6h-10.5v-5.3h27.4V22.6z"/>
	<path class="st0" d="M343.8,52h-5c-0.6,0-1-0.1-1.4-0.4c-0.4-0.3-0.6-0.6-0.8-1l-2.6-7.1h-14.4l-2.6,7.1c-0.1,0.4-0.4,0.7-0.7,1
		c-0.4,0.3-0.8,0.5-1.4,0.5h-5l13.7-34.7h6.6L343.8,52z M332.4,38.9l-4.2-11.5c-0.2-0.5-0.4-1.1-0.6-1.8c-0.2-0.7-0.4-1.5-0.7-2.3
		c-0.2,0.8-0.4,1.6-0.6,2.3s-0.4,1.3-0.6,1.9l-4.2,11.5H332.4z"/>
	<path class="st0" d="M377.8,46.7V52h-20.3V17.3h6.5v29.4H377.8z"/>
	<path class="st0" d="M412.1,52h-5c-0.6,0-1-0.1-1.4-0.4c-0.4-0.3-0.6-0.6-0.8-1l-2.6-7.1H388l-2.6,7.1c-0.1,0.4-0.4,0.7-0.7,1
		c-0.4,0.3-0.8,0.5-1.4,0.5h-5l13.7-34.7h6.6L412.1,52z M400.7,38.9l-4.2-11.5c-0.2-0.5-0.4-1.1-0.6-1.8c-0.2-0.7-0.4-1.5-0.7-2.3
		c-0.2,0.8-0.4,1.6-0.6,2.3s-0.4,1.3-0.6,1.9l-4.2,11.5H400.7z"/>
	<path class="st0" d="M427,17.3c2.3,0,4.3,0.3,6,0.8c1.7,0.5,3.1,1.3,4.2,2.3c1.1,1,1.9,2.1,2.5,3.5c0.5,1.4,0.8,2.8,0.8,4.5
		c0,1.7-0.3,3.2-0.8,4.6c-0.6,1.4-1.4,2.6-2.5,3.6c-1.1,1-2.5,1.8-4.2,2.4c-1.7,0.6-3.7,0.8-5.9,0.8h-4.8V52h-6.5V17.3H427z
		 M427,34.7c1.2,0,2.2-0.1,3.1-0.4c0.9-0.3,1.6-0.7,2.2-1.3c0.6-0.6,1-1.2,1.3-2s0.4-1.7,0.4-2.7c0-0.9-0.1-1.8-0.4-2.5
		c-0.3-0.8-0.7-1.4-1.3-1.9c-0.6-0.5-1.3-0.9-2.2-1.2c-0.9-0.3-1.9-0.4-3.1-0.4h-4.8v12.5H427z"/>
	<path class="st0" d="M469.7,22.6h-10.5V52h-6.5V22.6h-10.5v-5.3h27.4V22.6z"/>
	<path class="st0" d="M506.2,34.6c0,2.5-0.4,4.9-1.3,7.1c-0.8,2.2-2,4-3.6,5.6c-1.5,1.6-3.4,2.8-5.5,3.7c-2.2,0.9-4.6,1.3-7.2,1.3
		c-2.6,0-5-0.4-7.2-1.3c-2.2-0.9-4-2.1-5.6-3.7c-1.5-1.6-2.7-3.5-3.6-5.6c-0.8-2.2-1.3-4.5-1.3-7.1s0.4-4.9,1.3-7.1
		c0.8-2.2,2-4,3.6-5.6s3.4-2.8,5.6-3.7c2.2-0.9,4.6-1.3,7.2-1.3c1.8,0,3.4,0.2,5,0.6c1.6,0.4,3,1,4.3,1.7s2.5,1.6,3.5,2.7
		c1,1.1,1.9,2.3,2.6,3.6c0.7,1.3,1.3,2.7,1.6,4.3C506,31.3,506.2,33,506.2,34.6z M499.6,34.6c0-1.9-0.3-3.6-0.8-5.1
		c-0.5-1.5-1.2-2.8-2.2-3.9c-0.9-1.1-2.1-1.9-3.4-2.4c-1.4-0.6-2.9-0.8-4.6-0.8c-1.7,0-3.2,0.3-4.6,0.8c-1.4,0.6-2.5,1.4-3.5,2.4
		c-1,1.1-1.7,2.3-2.2,3.9c-0.5,1.5-0.8,3.2-0.8,5.1c0,1.9,0.3,3.6,0.8,5.1c0.5,1.5,1.2,2.8,2.2,3.8c1,1,2.1,1.9,3.5,2.4
		c1.4,0.6,2.9,0.8,4.6,0.8c1.7,0,3.2-0.3,4.6-0.8c1.4-0.6,2.5-1.4,3.4-2.4c0.9-1,1.7-2.3,2.2-3.8S499.6,36.6,499.6,34.6z"/>
	<path class="st0" d="M523.2,17.3c2.3,0,4.3,0.3,6,0.8c1.7,0.5,3.1,1.3,4.2,2.3c1.1,1,1.9,2.1,2.5,3.5c0.5,1.4,0.8,2.8,0.8,4.5
		c0,1.7-0.3,3.2-0.8,4.6c-0.6,1.4-1.4,2.6-2.5,3.6c-1.1,1-2.5,1.8-4.2,2.4c-1.7,0.6-3.7,0.8-5.9,0.8h-4.8V52h-6.5V17.3H523.2z
		 M523.2,34.7c1.2,0,2.2-0.1,3.1-0.4c0.9-0.3,1.6-0.7,2.2-1.3c0.6-0.6,1-1.2,1.3-2s0.4-1.7,0.4-2.7c0-0.9-0.1-1.8-0.4-2.5
		c-0.3-0.8-0.7-1.4-1.3-1.9c-0.6-0.5-1.3-0.9-2.2-1.2c-0.9-0.3-1.9-0.4-3.1-0.4h-4.8v12.5H523.2z"/>
	<path class="st0" d="M535.3,48.7c0-0.5,0.1-1,0.3-1.4c0.2-0.4,0.4-0.8,0.8-1.2c0.3-0.3,0.7-0.6,1.2-0.8c0.4-0.2,0.9-0.3,1.4-0.3
		c0.5,0,1,0.1,1.4,0.3c0.4,0.2,0.8,0.4,1.2,0.8c0.3,0.3,0.6,0.7,0.8,1.2c0.2,0.4,0.3,0.9,0.3,1.4c0,0.5-0.1,1-0.3,1.4
		c-0.2,0.4-0.5,0.8-0.8,1.1c-0.3,0.3-0.7,0.6-1.2,0.8c-0.4,0.2-0.9,0.3-1.4,0.3c-0.5,0-1-0.1-1.4-0.3c-0.4-0.2-0.8-0.4-1.2-0.8
		c-0.3-0.3-0.6-0.7-0.8-1.1C535.4,49.7,535.3,49.2,535.3,48.7z"/>
	<path class="st0" d="M38.3,100h-6.5V65.3h6.5V100z"/>
	<path class="st0" d="M70.3,70.6H59.9V100h-6.5V70.6H43v-5.3h27.4V70.6z"/>
	<path class="st0" d="M78,63c0.8,1.3,1.3,2.6,1.6,3.9c0.3,1.4,0.3,2.7,0.1,4.1c-0.2,1.3-0.7,2.6-1.4,3.8c-0.7,1.2-1.7,2.3-2.9,3.3
		L73.5,77c-0.2-0.1-0.3-0.2-0.3-0.3c-0.1-0.1-0.1-0.3-0.1-0.4c0-0.1,0-0.3,0.1-0.4c0.1-0.1,0.1-0.2,0.2-0.3c0.3-0.4,0.7-0.9,1-1.6
		c0.3-0.7,0.5-1.4,0.6-2.2c0.1-0.8,0.1-1.7,0-2.6c-0.2-0.9-0.5-1.9-1.1-2.8c-0.3-0.5-0.3-0.9-0.2-1.2c0.1-0.3,0.4-0.6,0.8-0.7L78,63
		z"/>
	<path class="st0" d="M104,71.6c-0.2,0.3-0.4,0.6-0.6,0.7c-0.2,0.2-0.5,0.2-0.8,0.2c-0.3,0-0.7-0.1-1.1-0.4
		c-0.4-0.2-0.9-0.5-1.4-0.8s-1.2-0.6-1.9-0.8c-0.7-0.2-1.6-0.4-2.6-0.4c-0.9,0-1.7,0.1-2.4,0.3S92,71,91.5,71.4
		c-0.5,0.4-0.8,0.8-1,1.4c-0.2,0.5-0.3,1.1-0.3,1.8c0,0.8,0.2,1.5,0.7,2c0.5,0.5,1.1,1,1.8,1.4s1.6,0.7,2.6,1s1.9,0.6,3,1
		c1,0.3,2,0.7,3,1.2s1.8,1,2.6,1.7c0.8,0.7,1.4,1.5,1.8,2.6s0.7,2.2,0.7,3.7c0,1.6-0.3,3-0.8,4.4c-0.5,1.4-1.3,2.6-2.4,3.6
		c-1,1-2.3,1.8-3.8,2.4c-1.5,0.6-3.2,0.9-5.1,0.9c-1.1,0-2.2-0.1-3.3-0.3c-1.1-0.2-2.1-0.5-3.1-0.9c-1-0.4-1.9-0.9-2.8-1.4
		c-0.9-0.6-1.6-1.2-2.3-1.9l1.9-3.1c0.2-0.2,0.4-0.4,0.6-0.6s0.5-0.2,0.8-0.2c0.4,0,0.8,0.2,1.3,0.5c0.5,0.3,1,0.7,1.7,1.1
		c0.6,0.4,1.4,0.8,2.2,1.1c0.9,0.3,1.9,0.5,3.1,0.5c1.8,0,3.3-0.4,4.3-1.3s1.5-2.1,1.5-3.8c0-0.9-0.2-1.7-0.7-2.2
		c-0.5-0.6-1.1-1.1-1.8-1.5c-0.8-0.4-1.6-0.7-2.6-1c-1-0.3-1.9-0.6-2.9-0.9c-1-0.3-2-0.7-2.9-1.2s-1.8-1-2.6-1.8
		c-0.8-0.7-1.4-1.6-1.8-2.7s-0.7-2.4-0.7-4c0-1.3,0.3-2.5,0.8-3.7s1.2-2.3,2.2-3.2s2.1-1.7,3.6-2.2c1.4-0.6,3-0.8,4.8-0.8
		c2,0,3.9,0.3,5.7,1c1.7,0.6,3.2,1.5,4.4,2.7L104,71.6z"/>
	<path class="st0" d="M151.6,100h-5c-0.6,0-1-0.1-1.4-0.4c-0.4-0.3-0.6-0.6-0.8-1l-2.6-7.1h-14.4l-2.6,7.1c-0.1,0.4-0.4,0.7-0.7,1
		s-0.8,0.5-1.4,0.5h-5l13.7-34.7h6.6L151.6,100z M140.2,86.9L136,75.4c-0.2-0.5-0.4-1.1-0.6-1.8c-0.2-0.7-0.4-1.5-0.7-2.3
		c-0.2,0.8-0.4,1.6-0.6,2.3s-0.4,1.3-0.6,1.9l-4.2,11.5H140.2z"/>
	<path class="st0" d="M188,70.6h-10.5V100h-6.5V70.6h-10.5v-5.3H188V70.6z"/>
	<path class="st0" d="M221.8,65.3V100h-6.5V84.8h-16.3V100h-6.5V65.3h6.5v14.9h16.3V65.3H221.8z"/>
	<path class="st0" d="M236.1,100h-6.5V65.3h6.5V100z"/>
	<path class="st0" d="M273.1,65.3V100h-3.3c-0.5,0-0.9-0.1-1.3-0.3c-0.3-0.2-0.7-0.5-1-0.9l-18.1-23.1c0.1,1.1,0.1,2,0.1,2.9V100
		h-5.7V65.3h3.4c0.3,0,0.5,0,0.7,0s0.4,0.1,0.5,0.1c0.2,0.1,0.3,0.2,0.4,0.3c0.1,0.1,0.3,0.3,0.5,0.5l18.2,23.2
		c0-0.6-0.1-1.1-0.1-1.7c0-0.5,0-1,0-1.5V65.3H273.1z"/>
	<path class="st0" d="M287.2,79.8h1.5c0.6,0,1.1-0.1,1.5-0.3c0.4-0.2,0.7-0.4,1-0.8l9.6-12.1c0.4-0.5,0.8-0.9,1.3-1.1
		c0.4-0.2,1-0.3,1.7-0.3h5.6l-11.7,14.4c-0.7,0.9-1.4,1.5-2.1,1.9c0.5,0.2,1,0.5,1.4,0.8c0.4,0.3,0.8,0.8,1.2,1.4l12,16.2h-5.7
		c-0.8,0-1.3-0.1-1.7-0.3s-0.7-0.5-0.9-0.9l-9.8-12.8c-0.3-0.4-0.7-0.7-1.1-0.9c-0.4-0.2-1-0.3-1.7-0.3h-2V100h-6.5V65.3h6.5V79.8z"
		/>
	<path class="st0" d="M325,65.3c2.3,0,4.3,0.3,6,0.8c1.7,0.5,3.1,1.3,4.2,2.3c1.1,1,1.9,2.1,2.5,3.5c0.5,1.4,0.8,2.8,0.8,4.5
		c0,1.7-0.3,3.2-0.8,4.6c-0.6,1.4-1.4,2.6-2.5,3.6c-1.1,1-2.5,1.8-4.2,2.4c-1.7,0.6-3.7,0.8-5.9,0.8h-4.8V100h-6.5V65.3H325z
		 M325,82.7c1.2,0,2.2-0.1,3.1-0.4c0.9-0.3,1.6-0.7,2.2-1.3c0.6-0.6,1-1.2,1.3-2s0.4-1.7,0.4-2.7c0-0.9-0.1-1.8-0.4-2.5
		s-0.7-1.4-1.3-1.9s-1.3-0.9-2.2-1.2c-0.9-0.3-1.9-0.4-3.1-0.4h-4.8v12.5H325z"/>
	<path class="st0" d="M370.7,100h-5c-0.6,0-1-0.1-1.4-0.4c-0.4-0.3-0.6-0.6-0.8-1l-2.6-7.1h-14.4l-2.6,7.1c-0.1,0.4-0.4,0.7-0.7,1
		s-0.8,0.5-1.4,0.5h-5l13.7-34.7h6.6L370.7,100z M359.3,86.9l-4.2-11.5c-0.2-0.5-0.4-1.1-0.6-1.8c-0.2-0.7-0.4-1.5-0.7-2.3
		c-0.2,0.8-0.4,1.6-0.6,2.3s-0.4,1.3-0.6,1.9l-4.2,11.5H359.3z"/>
	<path class="st0" d="M405.1,82.6c0,2.5-0.4,4.9-1.3,7c-0.8,2.1-2,4-3.6,5.5s-3.4,2.7-5.5,3.6c-2.2,0.8-4.6,1.3-7.2,1.3h-13.2V65.3
		h13.2c2.6,0,5,0.4,7.2,1.3c2.2,0.9,4,2,5.5,3.6s2.7,3.4,3.6,5.5C404.7,77.8,405.1,80.1,405.1,82.6z M398.5,82.6
		c0-1.9-0.3-3.6-0.8-5.1c-0.5-1.5-1.2-2.8-2.2-3.8c-1-1-2.1-1.9-3.5-2.4c-1.4-0.6-2.9-0.8-4.6-0.8h-6.7v24.4h6.7
		c1.7,0,3.2-0.3,4.6-0.8c1.4-0.6,2.5-1.4,3.5-2.4c1-1,1.7-2.3,2.2-3.8C398.3,86.3,398.5,84.6,398.5,82.6z"/>
	<path class="st0" d="M408.1,96.7c0-0.5,0.1-1,0.3-1.4s0.4-0.8,0.8-1.2s0.7-0.6,1.2-0.8c0.4-0.2,0.9-0.3,1.4-0.3
		c0.5,0,1,0.1,1.4,0.3c0.4,0.2,0.8,0.4,1.2,0.8s0.6,0.7,0.8,1.2c0.2,0.4,0.3,0.9,0.3,1.4c0,0.5-0.1,1-0.3,1.4
		c-0.2,0.4-0.5,0.8-0.8,1.1c-0.3,0.3-0.7,0.6-1.2,0.8c-0.4,0.2-0.9,0.3-1.4,0.3c-0.5,0-1-0.1-1.4-0.3c-0.4-0.2-0.8-0.4-1.2-0.8
		c-0.3-0.3-0.6-0.7-0.8-1.1C408.2,97.7,408.1,97.2,408.1,96.7z"/>
</g>
</svg>
