<?xml version="1.0" encoding="utf-8"?>
<!-- Generator: Adobe Illustrator 23.0.1, SVG Export Plug-In . SVG Version: 6.00 Build 0)  -->
<svg version="1.1" id="Layer_1" xmlns="http://www.w3.org/2000/svg" xmlns:xlink="http://www.w3.org/1999/xlink" x="0px" y="0px"
	 width="100px" height="30px" viewBox="0 0 100 30" style="enable-background:new 0 0 100 30;" xml:space="preserve">
<style type="text/css">
	.st0{fill:#FFFFFF;}
</style>
<g>
	<path class="st0" d="M12.1,10.5h-0.9V3.6h0.9V10.5z"/>
	<path class="st0" d="M14.7,6.2c0.2-0.3,0.4-0.5,0.7-0.6c0.3-0.2,0.6-0.2,1-0.2c0.6,0,1,0.2,1.3,0.5s0.5,0.8,0.5,1.4v3.2h-0.9V7.4
		c0-0.4-0.1-0.7-0.3-0.9c-0.2-0.2-0.5-0.3-0.8-0.3c-0.4,0-0.8,0.1-1.1,0.4s-0.4,0.7-0.4,1.2v2.7h-0.9v-5h0.5c0.3,0,0.4,0.1,0.4,0.4
		C14.7,5.9,14.7,6.2,14.7,6.2z"/>
	<path class="st0" d="M22,10.5c-0.1,0-0.2,0-0.3,0c-0.1,0-0.2,0-0.3,0c-0.6,0-1-0.1-1.2-0.4s-0.4-0.7-0.4-1.3V6.2H19V5.5h0.9V4.2
		h0.9v1.3H22v0.7h-1.2v2.7c0,0.3,0.1,0.6,0.2,0.7c0.2,0.1,0.4,0.2,0.8,0.2H22V10.5z"/>
	<path class="st0" d="M23.6,8.2c0,0.5,0.2,1,0.5,1.2c0.3,0.3,0.7,0.4,1.2,0.4s0.9-0.1,1.3-0.4L27,10c-0.2,0.2-0.5,0.3-0.8,0.4
		c-0.3,0.1-0.6,0.1-1,0.1s-0.7-0.1-1-0.2c-0.3-0.1-0.6-0.3-0.8-0.5S23,9.3,22.9,9s-0.2-0.7-0.2-1.1c0-0.4,0.1-0.8,0.2-1.1
		s0.3-0.6,0.5-0.8s0.5-0.4,0.8-0.5s0.6-0.2,0.9-0.2s0.6,0.1,0.9,0.2s0.5,0.3,0.6,0.5C26.8,6.2,27,6.4,27,6.7s0.1,0.6,0.1,0.9
		c0,0.2,0,0.4,0,0.6H23.6z M25.1,6.1c-0.4,0-0.8,0.1-1,0.4c-0.3,0.3-0.4,0.6-0.5,1h2.7V7.4c0-0.4-0.1-0.8-0.3-1
		C25.8,6.2,25.5,6.1,25.1,6.1z"/>
	<path class="st0" d="M29.3,3.3v5.8c0,0.3,0,0.5,0.1,0.5c0.1,0.1,0.3,0.1,0.5,0.1H30v0.7c-0.1,0-0.1,0-0.2,0s-0.1,0-0.2,0
		c-0.4,0-0.7-0.1-0.9-0.3c-0.2-0.2-0.3-0.6-0.3-1V3.3H29.3z"/>
	<path class="st0" d="M40.6,9.9c-0.2,0.2-0.5,0.4-0.9,0.5s-0.8,0.2-1.2,0.2c-0.6,0-1-0.1-1.4-0.3s-0.7-0.4-1-0.8
		c-0.3-0.3-0.5-0.7-0.6-1.2C35.3,8,35.2,7.5,35.2,7c0-0.6,0.1-1.1,0.2-1.5s0.4-0.8,0.7-1.1s0.6-0.5,1-0.7s0.9-0.2,1.4-0.2
		c0.4,0,0.8,0.1,1.1,0.2c0.4,0,0.7,0.1,0.9,0.3l-0.4,0.7c-0.2-0.2-0.4-0.3-0.7-0.3s-0.5-0.1-0.8-0.1c-0.7,0-1.3,0.2-1.7,0.7
		s-0.6,1.2-0.6,2c0,0.9,0.2,1.6,0.6,2s1,0.7,1.7,0.7c0.3,0,0.6,0,0.9-0.1c0.3-0.1,0.5-0.2,0.7-0.4L40.6,9.9z"/>
	<path class="st0" d="M46.2,8c0,0.4-0.1,0.8-0.2,1.1s-0.3,0.6-0.5,0.8s-0.5,0.4-0.8,0.5s-0.6,0.2-1,0.2s-0.7-0.1-1-0.2
		c-0.3-0.1-0.6-0.3-0.8-0.5s-0.4-0.5-0.5-0.8S41.3,8.4,41.3,8s0.1-0.8,0.2-1.1s0.3-0.6,0.5-0.8c0.2-0.2,0.5-0.4,0.8-0.5
		s0.6-0.2,1-0.2s0.7,0.1,1,0.2s0.6,0.3,0.8,0.5s0.4,0.5,0.5,0.8C46.2,7.2,46.2,7.6,46.2,8z M45.3,8c0-0.6-0.1-1.1-0.4-1.4
		s-0.6-0.5-1.1-0.5s-0.9,0.2-1.1,0.5S42.2,7.4,42.2,8s0.1,1.1,0.4,1.4s0.6,0.5,1.1,0.5s0.9-0.2,1.1-0.5S45.3,8.6,45.3,8z"/>
	<path class="st0" d="M47.5,5.5H48c0.3,0,0.4,0.1,0.4,0.4v0.5C48.5,6,48.7,5.8,49,5.6c0.3-0.2,0.6-0.2,0.9-0.2c0.1,0,0.2,0,0.3,0
		s0.1,0,0.2,0v0.7H50c-0.6,0-1,0.1-1.2,0.4c-0.3,0.3-0.4,0.8-0.4,1.4v2.4h-0.9C47.5,10.3,47.5,5.5,47.5,5.5z"/>
	<path class="st0" d="M51.6,8.2c0,0.5,0.2,1,0.5,1.2c0.3,0.3,0.7,0.4,1.2,0.4s0.9-0.1,1.3-0.4L55,10c-0.2,0.2-0.5,0.3-0.8,0.4
		c-0.3,0.1-0.6,0.1-1,0.1s-0.7-0.1-1-0.2c-0.3-0.1-0.6-0.3-0.8-0.5S51,9.3,50.9,9s-0.2-0.7-0.2-1.1c0-0.4,0.1-0.8,0.2-1.1
		C51,6.5,51.2,6.2,51.4,6s0.5-0.4,0.8-0.5s0.6-0.2,0.9-0.2s0.6,0.1,0.9,0.2c0.3,0.1,0.5,0.3,0.6,0.5c0.2,0.2,0.3,0.4,0.4,0.7
		s0.1,0.6,0.1,0.9c0,0.2,0,0.4,0,0.6H51.6z M53.2,6.1c-0.4,0-0.8,0.1-1,0.4c-0.3,0.3-0.4,0.6-0.5,1h2.7V7.4c0-0.4-0.1-0.8-0.3-1
		C53.8,6.2,53.5,6.1,53.2,6.1z"/>
	<path class="st0" d="M64,5.5l1.5,4.1L67,5.5h1l-2,5h-0.9l-2-5H64z"/>
	<path class="st0" d="M69.9,10.5H69V3.6h2.4c0.8,0,1.4,0.2,1.8,0.6s0.6,0.9,0.6,1.6S73.6,7,73.2,7.4S72.2,8,71.4,8H70L69.9,10.5
		L69.9,10.5z M69.9,7.1h1.4c0.5,0,0.8-0.1,1.1-0.3c0.3-0.2,0.4-0.6,0.4-1.1s-0.1-0.8-0.4-1.1s-0.6-0.3-1.1-0.3h-1.4V7.1z"/>
	<path class="st0" d="M75,5.5h0.5c0.3,0,0.4,0.1,0.4,0.4v0.5C76,6,76.2,5.8,76.5,5.6c0.3-0.2,0.6-0.2,0.9-0.2c0.1,0,0.2,0,0.3,0
		c0.1,0,0.1,0,0.2,0v0.7h-0.3c-0.6,0-1,0.1-1.2,0.4C76.1,6.8,76,7.3,76,7.9v2.4h-1V5.5z"/>
	<path class="st0" d="M83.2,8c0,0.4-0.1,0.8-0.2,1.1s-0.3,0.6-0.5,0.8s-0.5,0.4-0.8,0.5s-0.6,0.2-1,0.2s-0.7-0.1-1-0.2
		c-0.3-0.1-0.6-0.3-0.8-0.5c-0.2-0.2-0.4-0.5-0.5-0.8S78.3,8.4,78.3,8s0.1-0.8,0.2-1.1s0.3-0.6,0.5-0.8c0.2-0.2,0.5-0.4,0.8-0.5
		s0.6-0.2,1-0.2s0.7,0.1,1,0.2s0.6,0.3,0.8,0.5c0.2,0.2,0.4,0.5,0.5,0.8C83.2,7.2,83.2,7.6,83.2,8z M82.3,8c0-0.6-0.1-1.1-0.4-1.4
		s-0.6-0.5-1.1-0.5s-0.9,0.2-1.1,0.5S79.2,7.4,79.2,8s0.1,1.1,0.4,1.4s0.6,0.5,1.1,0.5s0.9-0.2,1.1-0.5S82.3,8.6,82.3,8z"/>
</g>
<g>
	<path class="st0" d="M32.8,5.4c0,0.2,0,0.4-0.1,0.5s-0.2,0.3-0.3,0.4S32.2,6.5,32,6.6s-0.3,0.1-0.5,0.1s-0.3,0-0.5-0.1
		s-0.3-0.1-0.4-0.3c-0.1-0.1-0.2-0.2-0.3-0.4s-0.1-0.3-0.1-0.5s0-0.4,0.1-0.5c0.1-0.2,0.2-0.3,0.3-0.4c0.1-0.1,0.2-0.2,0.4-0.3
		c0.2-0.1,0.3-0.1,0.5-0.1s0.3,0,0.5,0.1c0.2,0.1,0.3,0.1,0.4,0.3c0.1,0.1,0.2,0.2,0.3,0.4C32.7,5,32.8,5.2,32.8,5.4z M30.5,5.4
		c0,0.3,0.1,0.5,0.3,0.7s0.4,0.3,0.7,0.3s0.5-0.1,0.7-0.3s0.3-0.4,0.3-0.7s-0.1-0.5-0.3-0.7c-0.2-0.2-0.4-0.3-0.7-0.3
		S31,4.5,30.8,4.7C30.6,4.9,30.5,5.1,30.5,5.4z M32.1,6h-0.3l-0.3-0.4c0,0,0-0.1-0.1-0.1h-0.1V6H31V4.7h0.5c0.2,0,0.3,0,0.4,0.1
		C32,4.9,32,5,32,5.1s0,0.2-0.1,0.2c-0.1,0.1-0.1,0.1-0.2,0.1L32.1,6z M31.4,5.3c0.2,0,0.2-0.1,0.2-0.2s0-0.1-0.1-0.1s-0.1,0-0.2,0
		h-0.1v0.4h0.2V5.3z"/>
</g>
<g>
	<path class="st0" d="M83.9,7V4.7h-1V4.2h2.6v0.5h-1V7H83.9z M85.8,7V4.2h0.6l0.9,1.6l0.8-1.6h0.6V7h-0.6V5l-0.7,1.3h-0.5L86.2,5v2
		H85.8z"/>
</g>
<g>
	<path class="st0" d="M56.2,7V4.7h-1V4.2h2.6v0.5h-1V7H56.2z M58.2,7V4.2h0.6l0.9,1.6l0.8-1.6h0.6V7h-0.6V5l-0.7,1.3h-0.5L58.6,5v2
		H58.2z"/>
</g>
<g>
	<path class="st0" d="M15.4,23.8c-0.4,0-0.7-0.1-0.9-0.2S14,23.3,13.9,23v2.8H13v-7.1h0.5c0.3,0,0.4,0.1,0.4,0.4v0.4
		c0.1-0.3,0.4-0.5,0.7-0.7s0.7-0.2,1.1-0.2c0.3,0,0.6,0.1,0.9,0.2c0.3,0.1,0.5,0.3,0.7,0.5s0.3,0.5,0.4,0.8s0.1,0.7,0.1,1
		c0,0.4-0.1,0.8-0.1,1.1c-0.1,0.3-0.2,0.6-0.4,0.9c-0.2,0.2-0.4,0.4-0.7,0.6S15.7,23.8,15.4,23.8z M13.8,21.2c0,0.6,0.1,1,0.4,1.3
		s0.6,0.5,1.1,0.5s0.8-0.2,1.1-0.5s0.4-0.8,0.4-1.4s-0.1-1-0.4-1.3c-0.2-0.3-0.6-0.5-1-0.5c-0.5,0-0.9,0.2-1.2,0.5
		C13.9,20.2,13.8,20.7,13.8,21.2z"/>
	<path class="st0" d="M18.9,18.7h0.5c0.3,0,0.4,0.1,0.4,0.4v0.5c0.1-0.3,0.3-0.5,0.6-0.7s0.6-0.2,0.9-0.2c0.1,0,0.2,0,0.3,0
		c0.1,0,0.1,0,0.2,0v0.7h-0.3c-0.6,0-1,0.1-1.2,0.4s-0.4,0.8-0.4,1.4v2.4H19v-4.9C19,18.7,18.9,18.7,18.9,18.7z"/>
	<path class="st0" d="M27.1,21.2c0,0.4-0.1,0.8-0.2,1.1c-0.1,0.3-0.3,0.6-0.5,0.8c-0.2,0.2-0.5,0.4-0.8,0.5s-0.6,0.2-1,0.2
		s-0.7-0.1-1-0.2s-0.6-0.3-0.8-0.5c-0.2-0.2-0.4-0.5-0.5-0.8s-0.2-0.7-0.2-1.1s0.1-0.8,0.2-1.1c0.1-0.3,0.3-0.6,0.5-0.8
		c0.2-0.2,0.5-0.4,0.8-0.5s0.6-0.2,1-0.2s0.7,0.1,1,0.2s0.6,0.3,0.8,0.5c0.2,0.2,0.4,0.5,0.5,0.8C27.1,20.4,27.1,20.8,27.1,21.2z
		 M26.2,21.2c0-0.6-0.1-1.1-0.4-1.4s-0.6-0.5-1.1-0.5s-0.9,0.2-1.1,0.5s-0.4,0.8-0.4,1.4s0.1,1.1,0.4,1.4s0.6,0.5,1.1,0.5
		s0.9-0.2,1.1-0.5S26.2,21.8,26.2,21.2z"/>
	<path class="st0" d="M29,21.2c0,0.6,0.1,1.1,0.4,1.4s0.7,0.5,1.2,0.5c0.2,0,0.4,0,0.6-0.1s0.4-0.1,0.6-0.3l0.3,0.6
		c-0.4,0.3-0.9,0.5-1.6,0.5c-0.4,0-0.8-0.1-1.1-0.2c-0.3-0.1-0.6-0.3-0.8-0.5c-0.2-0.2-0.4-0.5-0.5-0.8s-0.2-0.7-0.2-1
		c0-0.4,0.1-0.8,0.2-1.1c0.1-0.3,0.3-0.6,0.5-0.8c0.2-0.2,0.5-0.4,0.8-0.5s0.7-0.2,1.1-0.2c0.6,0,1.1,0.2,1.5,0.5l-0.4,0.6
		c-0.1-0.1-0.3-0.2-0.5-0.2s-0.4-0.1-0.7-0.1c-0.5,0-0.9,0.2-1.2,0.5C29.2,20.1,29,20.6,29,21.2z"/>
	<path class="st0" d="M33.7,21.4c0,0.5,0.2,1,0.5,1.2c0.3,0.3,0.7,0.4,1.2,0.4s0.9-0.1,1.3-0.4l0.4,0.6c-0.2,0.2-0.5,0.3-0.8,0.4
		s-0.6,0.1-1,0.1s-0.7-0.1-1-0.2s-0.6-0.3-0.8-0.5s-0.4-0.5-0.5-0.8s-0.2-0.7-0.2-1.1s0.1-0.8,0.2-1.1c0.1-0.3,0.3-0.6,0.5-0.8
		c0.2-0.2,0.5-0.4,0.8-0.5s0.6-0.2,0.9-0.2c0.3,0,0.6,0.1,0.9,0.2c0.3,0.1,0.5,0.3,0.6,0.5c0.2,0.2,0.3,0.4,0.4,0.7
		c0.1,0.3,0.1,0.6,0.1,0.9c0,0.2,0,0.4-0.1,0.6C37.1,21.4,33.7,21.4,33.7,21.4z M35.3,19.3c-0.4,0-0.8,0.1-1,0.4
		c-0.3,0.3-0.4,0.6-0.5,1h2.7v-0.1c0-0.4-0.1-0.8-0.3-1S35.6,19.3,35.3,19.3z"/>
	<path class="st0" d="M40.1,19.3c-0.3,0-0.5,0.1-0.7,0.2s-0.3,0.3-0.3,0.5c0,0.1,0,0.2,0.1,0.3c0.1,0.1,0.2,0.2,0.5,0.3l0.9,0.3
		c0.4,0.1,0.8,0.3,1,0.5s0.3,0.5,0.3,0.8c0,0.5-0.2,0.8-0.5,1.1c-0.3,0.3-0.8,0.4-1.4,0.4c-0.4,0-0.8-0.1-1.1-0.2S38.3,23.2,38,23
		l0.4-0.6c0.2,0.2,0.4,0.3,0.7,0.4s0.5,0.1,0.8,0.1s0.6-0.1,0.7-0.2c0.2-0.1,0.3-0.3,0.3-0.6c0-0.2,0-0.3-0.1-0.4s-0.3-0.2-0.5-0.3
		l-1-0.3c-0.4-0.1-0.7-0.3-0.9-0.5s-0.3-0.5-0.3-0.8c0-0.2,0-0.4,0.1-0.6s0.2-0.3,0.4-0.4s0.4-0.2,0.6-0.3c0.2-0.1,0.5-0.1,0.7-0.1
		c0.3,0,0.6,0,0.9,0.1s0.6,0.2,0.8,0.4l-0.3,0.6c-0.2-0.1-0.4-0.2-0.6-0.3S40.4,19.3,40.1,19.3z"/>
	<path class="st0" d="M44.8,19.3c-0.3,0-0.5,0.1-0.7,0.2s-0.3,0.3-0.3,0.5c0,0.1,0,0.2,0.1,0.3c0.1,0.1,0.2,0.2,0.5,0.3l0.9,0.3
		c0.4,0.1,0.8,0.3,1,0.5s0.3,0.5,0.3,0.8c0,0.5-0.2,0.8-0.5,1.1c-0.3,0.3-0.8,0.4-1.4,0.4c-0.4,0-0.8-0.1-1.1-0.2S43,23.2,42.7,23
		l0.4-0.6c0.2,0.2,0.4,0.3,0.7,0.4s0.5,0.1,0.8,0.1s0.6-0.1,0.7-0.2c0.2-0.1,0.3-0.3,0.3-0.6c0-0.2,0-0.3-0.1-0.4s-0.3-0.2-0.5-0.3
		l-1-0.3c-0.4-0.1-0.7-0.3-0.9-0.5s-0.3-0.5-0.3-0.8c0-0.2,0-0.4,0.1-0.6s0.2-0.3,0.4-0.4s0.4-0.2,0.6-0.3c0.2-0.1,0.5-0.1,0.7-0.1
		c0.3,0,0.6,0,0.9,0.1s0.6,0.2,0.8,0.4L46,19.5c-0.2-0.1-0.4-0.2-0.6-0.3S45.1,19.3,44.8,19.3z"/>
	<path class="st0" d="M52.5,21.2c0,0.4-0.1,0.8-0.2,1.1c-0.1,0.3-0.3,0.6-0.5,0.8c-0.2,0.2-0.5,0.4-0.8,0.5s-0.6,0.2-1,0.2
		s-0.7-0.1-1-0.2s-0.6-0.3-0.8-0.5s-0.4-0.5-0.5-0.8s-0.2-0.7-0.2-1.1s0.1-0.8,0.2-1.1c0.1-0.3,0.3-0.6,0.5-0.8
		c0.2-0.2,0.5-0.4,0.8-0.5s0.6-0.2,1-0.2s0.7,0.1,1,0.2s0.6,0.3,0.8,0.5s0.4,0.5,0.5,0.8C52.4,20.4,52.5,20.8,52.5,21.2z M51.6,21.2
		c0-0.6-0.1-1.1-0.4-1.4s-0.6-0.5-1.1-0.5s-0.9,0.2-1.1,0.5s-0.4,0.8-0.4,1.4s0.1,1.1,0.4,1.4s0.6,0.5,1.1,0.5s0.9-0.2,1.1-0.5
		S51.6,21.8,51.6,21.2z"/>
	<path class="st0" d="M53.8,18.7h0.5c0.3,0,0.4,0.1,0.4,0.4v0.5c0.1-0.3,0.3-0.5,0.6-0.7s0.6-0.2,0.9-0.2c0.1,0,0.2,0,0.3,0
		s0.1,0,0.2,0v0.7h-0.3c-0.6,0-1,0.1-1.2,0.4s-0.4,0.8-0.4,1.4v2.4h-0.9L53.8,18.7L53.8,18.7z"/>
	<path class="st0" d="M62.4,18.7v0.7H61v4.3h-0.9v-4.3h-0.8v-0.7h0.8v-0.5c0-0.5,0.2-1,0.5-1.2c0.3-0.3,0.7-0.4,1.3-0.4
		c0.1,0,0.2,0,0.3,0s0.2,0,0.2,0v0.7h-0.1c-0.2,0-0.4,0-0.5,0s-0.3,0.1-0.4,0.1c-0.1,0.1-0.2,0.2-0.2,0.3s-0.1,0.3-0.1,0.5v0.5H62.4
		z"/>
	<path class="st0" d="M66.9,23.7c-0.3,0-0.5-0.1-0.6-0.2s-0.2-0.3-0.2-0.6c-0.1,0.3-0.4,0.5-0.6,0.6s-0.6,0.2-1,0.2
		c-0.3,0-0.5,0-0.7-0.1s-0.4-0.2-0.5-0.3c-0.1-0.1-0.2-0.3-0.3-0.5s-0.1-0.4-0.1-0.6c0-0.3,0.1-0.5,0.2-0.7s0.3-0.4,0.5-0.5
		s0.4-0.2,0.7-0.3c0.2-0.1,0.5-0.1,0.8-0.1H66v-0.3c0-0.3-0.1-0.6-0.3-0.8c-0.2-0.2-0.5-0.3-0.9-0.3c-0.3,0-0.5,0-0.8,0.1
		c-0.2,0.1-0.5,0.2-0.7,0.3L63,19.2c0.3-0.2,0.6-0.4,0.9-0.5s0.7-0.2,1-0.2s0.5,0,0.8,0.1c0.2,0.1,0.4,0.2,0.6,0.3
		c0.2,0.1,0.3,0.3,0.4,0.6c0.1,0.2,0.2,0.5,0.2,0.9v2.2c0,0.1,0,0.2,0.1,0.3c0,0.1,0.1,0.1,0.3,0.1h0.1v0.6c-0.1,0-0.1,0-0.2,0
		C67.1,23.7,67,23.7,66.9,23.7z M64.9,21.4c-0.4,0-0.7,0.1-0.9,0.2c-0.2,0.1-0.3,0.4-0.3,0.7c0,0.3,0.1,0.5,0.2,0.6
		c0.2,0.1,0.4,0.2,0.7,0.2c0.2,0,0.4,0,0.6-0.1s0.3-0.2,0.4-0.3s0.2-0.3,0.3-0.5s0.1-0.4,0.1-0.6v-0.3L64.9,21.4L64.9,21.4z"/>
	<path class="st0" d="M74.8,23.7v-3.1c0-0.4-0.1-0.7-0.2-0.9s-0.4-0.3-0.8-0.3s-0.7,0.1-1,0.4c-0.2,0.3-0.4,0.7-0.4,1.2v2.7h-0.9
		v-3.1c0-0.4-0.1-0.7-0.2-0.9s-0.4-0.3-0.8-0.3s-0.7,0.1-1,0.4c-0.2,0.3-0.4,0.7-0.4,1.2v2.7h-0.9v-5h0.5c0.3,0,0.4,0.1,0.4,0.4v0.3
		c0.2-0.3,0.4-0.5,0.6-0.6c0.3-0.1,0.6-0.2,0.9-0.2c0.4,0,0.7,0.1,0.9,0.2c0.3,0.2,0.5,0.4,0.6,0.7c0.2-0.3,0.4-0.5,0.7-0.7
		c0.3-0.2,0.6-0.2,1-0.2c0.5,0,1,0.2,1.3,0.5s0.4,0.8,0.4,1.4v3.2C75.5,23.7,74.8,23.7,74.8,23.7z"/>
	<path class="st0" d="M77.2,16.7h0.9v1h-0.9V16.7z M78.1,23.7h-0.9v-5h0.9V23.7z"/>
	<path class="st0" d="M80.6,16.5v5.8c0,0.3,0,0.5,0.1,0.5C80.8,23,81,23,81.2,23h0.1v0.7c-0.1,0-0.1,0-0.2,0s-0.1,0-0.2,0
		c-0.4,0-0.7-0.1-0.9-0.3c-0.2-0.2-0.3-0.6-0.3-1v-5.9C79.7,16.5,80.6,16.5,80.6,16.5z"/>
	<path class="st0" d="M82.6,18.7l1.5,4.1l1.5-4.1h0.9l-2.3,5.7c-0.1,0.2-0.2,0.4-0.3,0.6c-0.1,0.2-0.2,0.3-0.3,0.5
		c-0.1,0.1-0.3,0.2-0.4,0.3c-0.2,0.1-0.4,0.1-0.6,0.1c-0.1,0-0.2,0-0.3,0c-0.1,0-0.1,0-0.2,0v-0.7h0.3c0.1,0,0.3,0,0.4,0
		s0.2-0.1,0.3-0.1s0.1-0.1,0.2-0.2s0.1-0.2,0.2-0.4l0.2-0.6l-2-5h0.9C82.6,18.9,82.6,18.7,82.6,18.7z"/>
</g>
<g>
	<path class="st0" d="M12.1,10.5h-0.9V3.6h0.9V10.5z"/>
	<path class="st0" d="M14.7,6.2c0.2-0.3,0.4-0.5,0.7-0.6c0.3-0.2,0.6-0.2,1-0.2c0.6,0,1,0.2,1.3,0.5s0.5,0.8,0.5,1.4v3.2h-0.9V7.4
		c0-0.4-0.1-0.7-0.3-0.9c-0.2-0.2-0.5-0.3-0.8-0.3c-0.4,0-0.8,0.1-1.1,0.4s-0.4,0.7-0.4,1.2v2.7h-0.9v-5h0.5c0.3,0,0.4,0.1,0.4,0.4
		C14.7,5.9,14.7,6.2,14.7,6.2z"/>
	<path class="st0" d="M22,10.5c-0.1,0-0.2,0-0.3,0c-0.1,0-0.2,0-0.3,0c-0.6,0-1-0.1-1.2-0.4s-0.4-0.7-0.4-1.3V6.2H19V5.5h0.9V4.2
		h0.9v1.3H22v0.7h-1.2v2.7c0,0.3,0.1,0.6,0.2,0.7c0.2,0.1,0.4,0.2,0.8,0.2H22V10.5z"/>
	<path class="st0" d="M23.6,8.2c0,0.5,0.2,1,0.5,1.2c0.3,0.3,0.7,0.4,1.2,0.4s0.9-0.1,1.3-0.4L27,10c-0.2,0.2-0.5,0.3-0.8,0.4
		c-0.3,0.1-0.6,0.1-1,0.1s-0.7-0.1-1-0.2c-0.3-0.1-0.6-0.3-0.8-0.5S23,9.3,22.9,9s-0.2-0.7-0.2-1.1c0-0.4,0.1-0.8,0.2-1.1
		s0.3-0.6,0.5-0.8s0.5-0.4,0.8-0.5s0.6-0.2,0.9-0.2s0.6,0.1,0.9,0.2s0.5,0.3,0.6,0.5C26.8,6.2,27,6.4,27,6.7s0.1,0.6,0.1,0.9
		c0,0.2,0,0.4,0,0.6H23.6z M25.1,6.1c-0.4,0-0.8,0.1-1,0.4c-0.3,0.3-0.4,0.6-0.5,1h2.7V7.4c0-0.4-0.1-0.8-0.3-1
		C25.8,6.2,25.5,6.1,25.1,6.1z"/>
	<path class="st0" d="M29.3,3.3v5.8c0,0.3,0,0.5,0.1,0.5c0.1,0.1,0.3,0.1,0.5,0.1H30v0.7c-0.1,0-0.1,0-0.2,0s-0.1,0-0.2,0
		c-0.4,0-0.7-0.1-0.9-0.3c-0.2-0.2-0.3-0.6-0.3-1V3.3H29.3z"/>
	<path class="st0" d="M40.6,9.9c-0.2,0.2-0.5,0.4-0.9,0.5s-0.8,0.2-1.2,0.2c-0.6,0-1-0.1-1.4-0.3s-0.7-0.4-1-0.8
		c-0.3-0.3-0.5-0.7-0.6-1.2C35.3,8,35.2,7.5,35.2,7c0-0.6,0.1-1.1,0.2-1.5s0.4-0.8,0.7-1.1s0.6-0.5,1-0.7s0.9-0.2,1.4-0.2
		c0.4,0,0.8,0.1,1.1,0.2c0.4,0,0.7,0.1,0.9,0.3l-0.4,0.7c-0.2-0.2-0.4-0.3-0.7-0.3s-0.5-0.1-0.8-0.1c-0.7,0-1.3,0.2-1.7,0.7
		s-0.6,1.2-0.6,2c0,0.9,0.2,1.6,0.6,2s1,0.7,1.7,0.7c0.3,0,0.6,0,0.9-0.1c0.3-0.1,0.5-0.2,0.7-0.4L40.6,9.9z"/>
	<path class="st0" d="M46.2,8c0,0.4-0.1,0.8-0.2,1.1s-0.3,0.6-0.5,0.8s-0.5,0.4-0.8,0.5s-0.6,0.2-1,0.2s-0.7-0.1-1-0.2
		c-0.3-0.1-0.6-0.3-0.8-0.5s-0.4-0.5-0.5-0.8S41.3,8.4,41.3,8s0.1-0.8,0.2-1.1s0.3-0.6,0.5-0.8c0.2-0.2,0.5-0.4,0.8-0.5
		s0.6-0.2,1-0.2s0.7,0.1,1,0.2s0.6,0.3,0.8,0.5s0.4,0.5,0.5,0.8C46.2,7.2,46.2,7.6,46.2,8z M45.3,8c0-0.6-0.1-1.1-0.4-1.4
		s-0.6-0.5-1.1-0.5s-0.9,0.2-1.1,0.5S42.2,7.4,42.2,8s0.1,1.1,0.4,1.4s0.6,0.5,1.1,0.5s0.9-0.2,1.1-0.5S45.3,8.6,45.3,8z"/>
	<path class="st0" d="M47.5,5.5H48c0.3,0,0.4,0.1,0.4,0.4v0.5C48.5,6,48.7,5.8,49,5.6c0.3-0.2,0.6-0.2,0.9-0.2c0.1,0,0.2,0,0.3,0
		s0.1,0,0.2,0v0.7H50c-0.6,0-1,0.1-1.2,0.4c-0.3,0.3-0.4,0.8-0.4,1.4v2.4h-0.9C47.5,10.3,47.5,5.5,47.5,5.5z"/>
	<path class="st0" d="M51.6,8.2c0,0.5,0.2,1,0.5,1.2c0.3,0.3,0.7,0.4,1.2,0.4s0.9-0.1,1.3-0.4L55,10c-0.2,0.2-0.5,0.3-0.8,0.4
		c-0.3,0.1-0.6,0.1-1,0.1s-0.7-0.1-1-0.2c-0.3-0.1-0.6-0.3-0.8-0.5S51,9.3,50.9,9s-0.2-0.7-0.2-1.1c0-0.4,0.1-0.8,0.2-1.1
		C51,6.5,51.2,6.2,51.4,6s0.5-0.4,0.8-0.5s0.6-0.2,0.9-0.2s0.6,0.1,0.9,0.2c0.3,0.1,0.5,0.3,0.6,0.5c0.2,0.2,0.3,0.4,0.4,0.7
		s0.1,0.6,0.1,0.9c0,0.2,0,0.4,0,0.6H51.6z M53.2,6.1c-0.4,0-0.8,0.1-1,0.4c-0.3,0.3-0.4,0.6-0.5,1h2.7V7.4c0-0.4-0.1-0.8-0.3-1
		C53.8,6.2,53.5,6.1,53.2,6.1z"/>
	<path class="st0" d="M64,5.5l1.5,4.1L67,5.5h1l-2,5h-0.9l-2-5H64z"/>
	<path class="st0" d="M69.9,10.5H69V3.6h2.4c0.8,0,1.4,0.2,1.8,0.6s0.6,0.9,0.6,1.6S73.6,7,73.2,7.4S72.2,8,71.4,8H70L69.9,10.5
		L69.9,10.5z M69.9,7.1h1.4c0.5,0,0.8-0.1,1.1-0.3c0.3-0.2,0.4-0.6,0.4-1.1s-0.1-0.8-0.4-1.1s-0.6-0.3-1.1-0.3h-1.4V7.1z"/>
	<path class="st0" d="M75,5.5h0.5c0.3,0,0.4,0.1,0.4,0.4v0.5C76,6,76.2,5.8,76.5,5.6c0.3-0.2,0.6-0.2,0.9-0.2c0.1,0,0.2,0,0.3,0
		c0.1,0,0.1,0,0.2,0v0.7h-0.3c-0.6,0-1,0.1-1.2,0.4C76.1,6.8,76,7.3,76,7.9v2.4h-1V5.5z"/>
	<path class="st0" d="M83.2,8c0,0.4-0.1,0.8-0.2,1.1s-0.3,0.6-0.5,0.8s-0.5,0.4-0.8,0.5s-0.6,0.2-1,0.2s-0.7-0.1-1-0.2
		c-0.3-0.1-0.6-0.3-0.8-0.5c-0.2-0.2-0.4-0.5-0.5-0.8S78.3,8.4,78.3,8s0.1-0.8,0.2-1.1s0.3-0.6,0.5-0.8c0.2-0.2,0.5-0.4,0.8-0.5
		s0.6-0.2,1-0.2s0.7,0.1,1,0.2s0.6,0.3,0.8,0.5c0.2,0.2,0.4,0.5,0.5,0.8C83.2,7.2,83.2,7.6,83.2,8z M82.3,8c0-0.6-0.1-1.1-0.4-1.4
		s-0.6-0.5-1.1-0.5s-0.9,0.2-1.1,0.5S79.2,7.4,79.2,8s0.1,1.1,0.4,1.4s0.6,0.5,1.1,0.5s0.9-0.2,1.1-0.5S82.3,8.6,82.3,8z"/>
</g>
<g>
	<path class="st0" d="M32.8,5.4c0,0.2,0,0.4-0.1,0.5s-0.2,0.3-0.3,0.4S32.2,6.5,32,6.6s-0.3,0.1-0.5,0.1s-0.3,0-0.5-0.1
		s-0.3-0.1-0.4-0.3c-0.1-0.1-0.2-0.2-0.3-0.4s-0.1-0.3-0.1-0.5s0-0.4,0.1-0.5c0.1-0.2,0.2-0.3,0.3-0.4c0.1-0.1,0.2-0.2,0.4-0.3
		c0.2-0.1,0.3-0.1,0.5-0.1s0.3,0,0.5,0.1c0.2,0.1,0.3,0.1,0.4,0.3c0.1,0.1,0.2,0.2,0.3,0.4C32.7,5,32.8,5.2,32.8,5.4z M30.5,5.4
		c0,0.3,0.1,0.5,0.3,0.7s0.4,0.3,0.7,0.3s0.5-0.1,0.7-0.3s0.3-0.4,0.3-0.7s-0.1-0.5-0.3-0.7c-0.2-0.2-0.4-0.3-0.7-0.3
		S31,4.5,30.8,4.7C30.6,4.9,30.5,5.1,30.5,5.4z M32.1,6h-0.3l-0.3-0.4c0,0,0-0.1-0.1-0.1h-0.1V6H31V4.7h0.5c0.2,0,0.3,0,0.4,0.1
		C32,4.9,32,5,32,5.1s0,0.2-0.1,0.2c-0.1,0.1-0.1,0.1-0.2,0.1L32.1,6z M31.4,5.3c0.2,0,0.2-0.1,0.2-0.2s0-0.1-0.1-0.1s-0.1,0-0.2,0
		h-0.1v0.4h0.2V5.3z"/>
</g>
<g>
	<path class="st0" d="M83.9,7V4.7h-1V4.2h2.6v0.5h-1V7H83.9z M85.8,7V4.2h0.6l0.9,1.6l0.8-1.6h0.6V7h-0.6V5l-0.7,1.3h-0.5L86.2,5v2
		H85.8z"/>
</g>
<g>
	<path class="st0" d="M56.2,7V4.7h-1V4.2h2.6v0.5h-1V7H56.2z M58.2,7V4.2h0.6l0.9,1.6l0.8-1.6h0.6V7h-0.6V5l-0.7,1.3h-0.5L58.6,5v2
		H58.2z"/>
</g>
<g>
	<path class="st0" d="M15.4,23.8c-0.4,0-0.7-0.1-0.9-0.2S14,23.3,13.9,23v2.8H13v-7.1h0.5c0.3,0,0.4,0.1,0.4,0.4v0.4
		c0.1-0.3,0.4-0.5,0.7-0.7s0.7-0.2,1.1-0.2c0.3,0,0.6,0.1,0.9,0.2c0.3,0.1,0.5,0.3,0.7,0.5s0.3,0.5,0.4,0.8s0.1,0.7,0.1,1
		c0,0.4-0.1,0.8-0.1,1.1c-0.1,0.3-0.2,0.6-0.4,0.9c-0.2,0.2-0.4,0.4-0.7,0.6S15.7,23.8,15.4,23.8z M13.8,21.2c0,0.6,0.1,1,0.4,1.3
		s0.6,0.5,1.1,0.5s0.8-0.2,1.1-0.5s0.4-0.8,0.4-1.4s-0.1-1-0.4-1.3c-0.2-0.3-0.6-0.5-1-0.5c-0.5,0-0.9,0.2-1.2,0.5
		C13.9,20.2,13.8,20.7,13.8,21.2z"/>
	<path class="st0" d="M18.9,18.7h0.5c0.3,0,0.4,0.1,0.4,0.4v0.5c0.1-0.3,0.3-0.5,0.6-0.7s0.6-0.2,0.9-0.2c0.1,0,0.2,0,0.3,0
		c0.1,0,0.1,0,0.2,0v0.7h-0.3c-0.6,0-1,0.1-1.2,0.4s-0.4,0.8-0.4,1.4v2.4H19v-4.9C19,18.7,18.9,18.7,18.9,18.7z"/>
	<path class="st0" d="M27.1,21.2c0,0.4-0.1,0.8-0.2,1.1c-0.1,0.3-0.3,0.6-0.5,0.8c-0.2,0.2-0.5,0.4-0.8,0.5s-0.6,0.2-1,0.2
		s-0.7-0.1-1-0.2s-0.6-0.3-0.8-0.5c-0.2-0.2-0.4-0.5-0.5-0.8s-0.2-0.7-0.2-1.1s0.1-0.8,0.2-1.1c0.1-0.3,0.3-0.6,0.5-0.8
		c0.2-0.2,0.5-0.4,0.8-0.5s0.6-0.2,1-0.2s0.7,0.1,1,0.2s0.6,0.3,0.8,0.5c0.2,0.2,0.4,0.5,0.5,0.8C27.1,20.4,27.1,20.8,27.1,21.2z
		 M26.2,21.2c0-0.6-0.1-1.1-0.4-1.4s-0.6-0.5-1.1-0.5s-0.9,0.2-1.1,0.5s-0.4,0.8-0.4,1.4s0.1,1.1,0.4,1.4s0.6,0.5,1.1,0.5
		s0.9-0.2,1.1-0.5S26.2,21.8,26.2,21.2z"/>
	<path class="st0" d="M29,21.2c0,0.6,0.1,1.1,0.4,1.4s0.7,0.5,1.2,0.5c0.2,0,0.4,0,0.6-0.1s0.4-0.1,0.6-0.3l0.3,0.6
		c-0.4,0.3-0.9,0.5-1.6,0.5c-0.4,0-0.8-0.1-1.1-0.2c-0.3-0.1-0.6-0.3-0.8-0.5c-0.2-0.2-0.4-0.5-0.5-0.8s-0.2-0.7-0.2-1
		c0-0.4,0.1-0.8,0.2-1.1c0.1-0.3,0.3-0.6,0.5-0.8c0.2-0.2,0.5-0.4,0.8-0.5s0.7-0.2,1.1-0.2c0.6,0,1.1,0.2,1.5,0.5l-0.4,0.6
		c-0.1-0.1-0.3-0.2-0.5-0.2s-0.4-0.1-0.7-0.1c-0.5,0-0.9,0.2-1.2,0.5C29.2,20.1,29,20.6,29,21.2z"/>
	<path class="st0" d="M33.7,21.4c0,0.5,0.2,1,0.5,1.2c0.3,0.3,0.7,0.4,1.2,0.4s0.9-0.1,1.3-0.4l0.4,0.6c-0.2,0.2-0.5,0.3-0.8,0.4
		s-0.6,0.1-1,0.1s-0.7-0.1-1-0.2s-0.6-0.3-0.8-0.5s-0.4-0.5-0.5-0.8s-0.2-0.7-0.2-1.1s0.1-0.8,0.2-1.1c0.1-0.3,0.3-0.6,0.5-0.8
		c0.2-0.2,0.5-0.4,0.8-0.5s0.6-0.2,0.9-0.2c0.3,0,0.6,0.1,0.9,0.2c0.3,0.1,0.5,0.3,0.6,0.5c0.2,0.2,0.3,0.4,0.4,0.7
		c0.1,0.3,0.1,0.6,0.1,0.9c0,0.2,0,0.4-0.1,0.6C37.1,21.4,33.7,21.4,33.7,21.4z M35.3,19.3c-0.4,0-0.8,0.1-1,0.4
		c-0.3,0.3-0.4,0.6-0.5,1h2.7v-0.1c0-0.4-0.1-0.8-0.3-1S35.6,19.3,35.3,19.3z"/>
	<path class="st0" d="M40.1,19.3c-0.3,0-0.5,0.1-0.7,0.2s-0.3,0.3-0.3,0.5c0,0.1,0,0.2,0.1,0.3c0.1,0.1,0.2,0.2,0.5,0.3l0.9,0.3
		c0.4,0.1,0.8,0.3,1,0.5s0.3,0.5,0.3,0.8c0,0.5-0.2,0.8-0.5,1.1c-0.3,0.3-0.8,0.4-1.4,0.4c-0.4,0-0.8-0.1-1.1-0.2S38.3,23.2,38,23
		l0.4-0.6c0.2,0.2,0.4,0.3,0.7,0.4s0.5,0.1,0.8,0.1s0.6-0.1,0.7-0.2c0.2-0.1,0.3-0.3,0.3-0.6c0-0.2,0-0.3-0.1-0.4s-0.3-0.2-0.5-0.3
		l-1-0.3c-0.4-0.1-0.7-0.3-0.9-0.5s-0.3-0.5-0.3-0.8c0-0.2,0-0.4,0.1-0.6s0.2-0.3,0.4-0.4s0.4-0.2,0.6-0.3c0.2-0.1,0.5-0.1,0.7-0.1
		c0.3,0,0.6,0,0.9,0.1s0.6,0.2,0.8,0.4l-0.3,0.6c-0.2-0.1-0.4-0.2-0.6-0.3S40.4,19.3,40.1,19.3z"/>
	<path class="st0" d="M44.8,19.3c-0.3,0-0.5,0.1-0.7,0.2s-0.3,0.3-0.3,0.5c0,0.1,0,0.2,0.1,0.3c0.1,0.1,0.2,0.2,0.5,0.3l0.9,0.3
		c0.4,0.1,0.8,0.3,1,0.5s0.3,0.5,0.3,0.8c0,0.5-0.2,0.8-0.5,1.1c-0.3,0.3-0.8,0.4-1.4,0.4c-0.4,0-0.8-0.1-1.1-0.2S43,23.2,42.7,23
		l0.4-0.6c0.2,0.2,0.4,0.3,0.7,0.4s0.5,0.1,0.8,0.1s0.6-0.1,0.7-0.2c0.2-0.1,0.3-0.3,0.3-0.6c0-0.2,0-0.3-0.1-0.4s-0.3-0.2-0.5-0.3
		l-1-0.3c-0.4-0.1-0.7-0.3-0.9-0.5s-0.3-0.5-0.3-0.8c0-0.2,0-0.4,0.1-0.6s0.2-0.3,0.4-0.4s0.4-0.2,0.6-0.3c0.2-0.1,0.5-0.1,0.7-0.1
		c0.3,0,0.6,0,0.9,0.1s0.6,0.2,0.8,0.4L46,19.5c-0.2-0.1-0.4-0.2-0.6-0.3S45.1,19.3,44.8,19.3z"/>
	<path class="st0" d="M52.5,21.2c0,0.4-0.1,0.8-0.2,1.1c-0.1,0.3-0.3,0.6-0.5,0.8c-0.2,0.2-0.5,0.4-0.8,0.5s-0.6,0.2-1,0.2
		s-0.7-0.1-1-0.2s-0.6-0.3-0.8-0.5s-0.4-0.5-0.5-0.8s-0.2-0.7-0.2-1.1s0.1-0.8,0.2-1.1c0.1-0.3,0.3-0.6,0.5-0.8
		c0.2-0.2,0.5-0.4,0.8-0.5s0.6-0.2,1-0.2s0.7,0.1,1,0.2s0.6,0.3,0.8,0.5s0.4,0.5,0.5,0.8C52.4,20.4,52.5,20.8,52.5,21.2z M51.6,21.2
		c0-0.6-0.1-1.1-0.4-1.4s-0.6-0.5-1.1-0.5s-0.9,0.2-1.1,0.5s-0.4,0.8-0.4,1.4s0.1,1.1,0.4,1.4s0.6,0.5,1.1,0.5s0.9-0.2,1.1-0.5
		S51.6,21.8,51.6,21.2z"/>
	<path class="st0" d="M53.8,18.7h0.5c0.3,0,0.4,0.1,0.4,0.4v0.5c0.1-0.3,0.3-0.5,0.6-0.7s0.6-0.2,0.9-0.2c0.1,0,0.2,0,0.3,0
		s0.1,0,0.2,0v0.7h-0.3c-0.6,0-1,0.1-1.2,0.4s-0.4,0.8-0.4,1.4v2.4h-0.9L53.8,18.7L53.8,18.7z"/>
	<path class="st0" d="M62.4,18.7v0.7H61v4.3h-0.9v-4.3h-0.8v-0.7h0.8v-0.5c0-0.5,0.2-1,0.5-1.2c0.3-0.3,0.7-0.4,1.3-0.4
		c0.1,0,0.2,0,0.3,0s0.2,0,0.2,0v0.7h-0.1c-0.2,0-0.4,0-0.5,0s-0.3,0.1-0.4,0.1c-0.1,0.1-0.2,0.2-0.2,0.3s-0.1,0.3-0.1,0.5v0.5H62.4
		z"/>
	<path class="st0" d="M66.9,23.7c-0.3,0-0.5-0.1-0.6-0.2s-0.2-0.3-0.2-0.6c-0.1,0.3-0.4,0.5-0.6,0.6s-0.6,0.2-1,0.2
		c-0.3,0-0.5,0-0.7-0.1s-0.4-0.2-0.5-0.3c-0.1-0.1-0.2-0.3-0.3-0.5s-0.1-0.4-0.1-0.6c0-0.3,0.1-0.5,0.2-0.7s0.3-0.4,0.5-0.5
		s0.4-0.2,0.7-0.3c0.2-0.1,0.5-0.1,0.8-0.1H66v-0.3c0-0.3-0.1-0.6-0.3-0.8c-0.2-0.2-0.5-0.3-0.9-0.3c-0.3,0-0.5,0-0.8,0.1
		c-0.2,0.1-0.5,0.2-0.7,0.3L63,19.2c0.3-0.2,0.6-0.4,0.9-0.5s0.7-0.2,1-0.2s0.5,0,0.8,0.1c0.2,0.1,0.4,0.2,0.6,0.3
		c0.2,0.1,0.3,0.3,0.4,0.6c0.1,0.2,0.2,0.5,0.2,0.9v2.2c0,0.1,0,0.2,0.1,0.3c0,0.1,0.1,0.1,0.3,0.1h0.1v0.6c-0.1,0-0.1,0-0.2,0
		C67.1,23.7,67,23.7,66.9,23.7z M64.9,21.4c-0.4,0-0.7,0.1-0.9,0.2c-0.2,0.1-0.3,0.4-0.3,0.7c0,0.3,0.1,0.5,0.2,0.6
		c0.2,0.1,0.4,0.2,0.7,0.2c0.2,0,0.4,0,0.6-0.1s0.3-0.2,0.4-0.3s0.2-0.3,0.3-0.5s0.1-0.4,0.1-0.6v-0.3L64.9,21.4L64.9,21.4z"/>
	<path class="st0" d="M74.8,23.7v-3.1c0-0.4-0.1-0.7-0.2-0.9s-0.4-0.3-0.8-0.3s-0.7,0.1-1,0.4c-0.2,0.3-0.4,0.7-0.4,1.2v2.7h-0.9
		v-3.1c0-0.4-0.1-0.7-0.2-0.9s-0.4-0.3-0.8-0.3s-0.7,0.1-1,0.4c-0.2,0.3-0.4,0.7-0.4,1.2v2.7h-0.9v-5h0.5c0.3,0,0.4,0.1,0.4,0.4v0.3
		c0.2-0.3,0.4-0.5,0.6-0.6c0.3-0.1,0.6-0.2,0.9-0.2c0.4,0,0.7,0.1,0.9,0.2c0.3,0.2,0.5,0.4,0.6,0.7c0.2-0.3,0.4-0.5,0.7-0.7
		c0.3-0.2,0.6-0.2,1-0.2c0.5,0,1,0.2,1.3,0.5s0.4,0.8,0.4,1.4v3.2C75.5,23.7,74.8,23.7,74.8,23.7z"/>
	<path class="st0" d="M77.2,16.7h0.9v1h-0.9V16.7z M78.1,23.7h-0.9v-5h0.9V23.7z"/>
	<path class="st0" d="M80.6,16.5v5.8c0,0.3,0,0.5,0.1,0.5C80.8,23,81,23,81.2,23h0.1v0.7c-0.1,0-0.1,0-0.2,0s-0.1,0-0.2,0
		c-0.4,0-0.7-0.1-0.9-0.3c-0.2-0.2-0.3-0.6-0.3-1v-5.9C79.7,16.5,80.6,16.5,80.6,16.5z"/>
	<path class="st0" d="M82.6,18.7l1.5,4.1l1.5-4.1h0.9l-2.3,5.7c-0.1,0.2-0.2,0.4-0.3,0.6c-0.1,0.2-0.2,0.3-0.3,0.5
		c-0.1,0.1-0.3,0.2-0.4,0.3c-0.2,0.1-0.4,0.1-0.6,0.1c-0.1,0-0.2,0-0.3,0c-0.1,0-0.1,0-0.2,0v-0.7h0.3c0.1,0,0.3,0,0.4,0
		s0.2-0.1,0.3-0.1s0.1-0.1,0.2-0.2s0.1-0.2,0.2-0.4l0.2-0.6l-2-5h0.9C82.6,18.9,82.6,18.7,82.6,18.7z"/>
</g>
</svg>
